[
  {
    "id": 6998,
    "army": "Combined Army",
    "army_id": 6999,
    "name": "Shasvastii Expeditionary Force",
    "legacy_name": "Shasvastii Expeditionary Force",
    "abbr": "Shasvastii Exped. Force",
    "units": [
      {
        "comment": "Shasvastii Seed-Soldiers",
        "id": 6030,
        "ava": "T"
      },
      {
        "comment": "Shasvastii Cadmus",
        "id": 6025,
        "ava": "4"
      },
      {
        "comment": "Shasvastii Haiduks",
        "id": 6027,
        "ava": "3"
      },
      {
        "comment": "Shasvastii Aswangs",
        "id": 6024,
        "ava": "5",
        "childs": [
          {
            "comment": "Lieutenant - SWC cost is only 0 in Shasvastii Expededition",
            "id": 2,
            "swc": "0"
          }
        ]
      },
      {
        "comment": "Shasvastii Noctifers",
        "id": 6028,
        "ava": "3"
      },
      {
        "comment": "Shasvastii Gwailos",
        "id": 6026,
        "ava": "5",
        "childs": [
          {
            "comment": "Lieutenant - SWC cost is only 0 in Shasvastii Expededition",
            "id": 1,
            "swc": "0"
          },
          {
            "comment": "Lieutenant - SWC cost is only 0 in Shasvastii Expededition",
            "id": 2,
            "swc": "0"
          }
        ],
        "linkable": true
      },
      {
        "comment": "Shasvastii Caliban (Seed-Embryo)",
        "id": 6044,
        "ava": "5",
        "linkable": true
      },
      {
        "comment": "Shasvastii Caliban (Infiltration)",
        "id": 6045,
        "ava": "5",
        "note": "Caliban with Infiltration cannot join a Fireteam"
      },
      {
        "comment": "Shasvastii Caliban (Developed)",
        "id": 6046,
        "ava": "5",
        "linkable": true
      },
      {
        "comment": "The Shrouded",
        "id": 6010,
        "ava": "4"
      },
      {
        "comment": "Malignos",
        "id": 6011,
        "ava": "3"
      },
      {
        "comment": "Speculo Killers",
        "id": 6012,
        "ava": "2"
      },
      {
        "comment": "Shasvastii Special Armoured Corp Sphinx",
        "id": 6029,
        "ava": "1"
      },
      {
        "comment": "Med-Tech Obsidon Medchanoid",
        "id": 6016,
        "ava": "1"
      },
      {
        "comment": "M-Drone",
        "id": 6017,
        "ava": "1"
      },
      {
        "comment": "Q-Drone",
        "id": 6018,
        "ava": "2"
      },
      {
        "comment": "T-Drone",
        "id": 6019,
        "ava": "2"
      },
      {
        "comment": "R-Drone",
        "id": 6020,
        "ava": "1"
      },
      {
        "comment": "E-Drone",
        "id": 6051,
        "ava": "1"
      },
      {
        "comment": "Slave Drones",
        "id": 6033,
        "ava": "2"
      },
      {
        "comment": "Ikadron Batroids",
        "id": 6042,
        "ava": "2"
      },
      {
        "comment": "Cadmus-Naish Agent Sheskiin",
        "id": 6038,
        "ava": "1",
        "childs": [
          {
            "comment": "Lieutenant - SWC cost is only 0 in Shasvastii Expededition",
            "id": 1,
            "swc": "0"
          }
        ],
        "linkable": true,
        "note": "Fireteam: Core with Caliban or Gwailo"
      },
      {
        "comment": "Corax Spec-Ops",
        "id": 6041,
        "ava": "1"
      },
      {
        "comment": "Treitak Spec-Ops",
        "id": 6039,
        "ava": "1"
      },
      {
        "comment": "Shasvastii Corax Hasht",
        "id": 6031,
        "ava": "1",
        "linkable": true,
        "note": "Fireteam: Core with Caliban or Gwailo"
      },
      {
        "comment": "Bit & Kiss!",
        "id": 6056,
        "ava": "1"
      }
    ]
  }
]
