[
  {
    "id": 5001,
    "army": "Nomads",
    "isc": "Alguaciles",
    "legacy_isc": "Alguaciles",
    "name": "Alguacil",
    "type": "LI",
    "classification": "Line",
    "imp": "",
    "irr": "",
    "cube": "X",
    "mov": "4-4",
    "cc": "13",
    "bs": "11",
    "ph": "10",
    "wip": "13",
    "arm": "1",
    "bts": "0",
    "w": "1",
    "s": "2",
    "ava": "T",
    "spec": [],
    "childs": [
      {
        "id": 1,
        "name": "Combi",
        "legacy_code": "Default",
        "cost": "10",
        "swc": "0",
        "spec": [],
        "bsw": [
          "Combi Rifle"
        ],
        "ccw": [
          "Knife",
          "Pistol"
        ]
      },
      {
        "id": 2,
        "name": "HMG",
        "legacy_code": "HMG",
        "cost": "18",
        "swc": "1",
        "spec": [],
        "bsw": [
          "HMG"
        ],
        "ccw": [
          "Knife",
          "Pistol"
        ]
      },
      {
        "id": 3,
        "name": "Grenadier",
        "legacy_code": "Grenadier",
        "cost": "14",
        "swc": "1",
        "spec": [],
        "bsw": [
          "Combi Rifle",
          "Light Grenade Launcher"
        ],
        "ccw": [
          "Knife",
          "Pistol"
        ]
      },
      {
        "id": 4,
        "name": "MULTI Sniper Rifle",
        "legacy_code": "MULTI Sniper Rifle",
        "cost": "18",
        "swc": "1.5",
        "spec": [],
        "bsw": [
          "MULTI Sniper Rifle"
        ],
        "ccw": [
          "Knife",
          "Pistol"
        ]
      },
      {
        "id": 5,
        "name": "Missile Launcher",
        "legacy_code": "Missile Launcher",
        "cost": "15",
        "swc": "1.5",
        "spec": [],
        "bsw": [
          "Missile Launcher"
        ],
        "ccw": [
          "Knife",
          "Pistol"
        ]
      },
      {
        "id": 6,
        "name": "Hacker",
        "legacy_code": "Hacker",
        "cost": "18",
        "swc": "0.5",
        "spec": [
          "Hacking Device"
        ],
        "bsw": [
          "Combi Rifle"
        ],
        "ccw": [
          "Knife",
          "Pistol"
        ]
      },
      {
        "id": 7,
        "name": "Observer+Repeater",
        "legacy_code": "Observer+Repeater",
        "cost": "12",
        "swc": "0",
        "spec": [
          "Forward Observer",
          "Deployable Repeater"
        ],
        "bsw": [
          "Combi Rifle"
        ],
        "ccw": [
          "Knife",
          "Pistol"
        ]
      },
      {
        "id": 8,
        "name": "Paramedic",
        "legacy_code": "Paramedic",
        "cost": "12",
        "swc": "0",
        "spec": [
          "MediKit"
        ],
        "bsw": [
          "Combi Rifle"
        ],
        "ccw": [
          "Knife",
          "Pistol"
        ]
      },
      {
        "id": 9,
        "name": "Lieutenant",
        "legacy_code": "Lieutenant",
        "cost": "10",
        "swc": "1",
        "spec": [
          "Lieutenant"
        ],
        "bsw": [
          "Combi Rifle"
        ],
        "ccw": [
          "Knife",
          "Pistol"
        ]
      }
    ]
  },
  {
    "id": 5002,
    "army": "Nomads",
    "isc": "Grenzers",
    "legacy_isc": "Grenzers",
    "name": "Grenzer",
    "type": "MI",
    "classification": "Veteran",
    "imp": "",
    "irr": "",
    "cube": "X",
    "mov": "4-2",
    "cc": "15",
    "bs": "13",
    "ph": "11",
    "wip": "13",
    "arm": "3",
    "bts": "6",
    "w": "1",
    "s": "2",
    "ava": "3",
    "spec": [
      "V: Courage",
      "Multispectral Visor L1"
    ],
    "childs": [
      {
        "id": 1,
        "name": "Combi",
        "legacy_code": "Default",
        "cost": "25",
        "swc": "0",
        "spec": [],
        "bsw": [
          "Combi Rifle",
          "Light Flamethrower"
        ],
        "ccw": [
          "Knife",
          "Breaker Pistol",
          "Pistol"
        ]
      },
      {
        "id": 2,
        "name": "Boarding Shotgun",
        "legacy_code": "Boarding Shotgun",
        "cost": "23",
        "swc": "0",
        "spec": [],
        "bsw": [
          "Boarding Shotgun"
        ],
        "ccw": [
          "Knife",
          "Breaker Pistol",
          "Pistol"
        ]
      },
      {
        "id": 3,
        "name": "MULTI Sniper Rifle",
        "legacy_code": "MULTI Sniper Rifle",
        "cost": "32",
        "swc": "1.5",
        "spec": [],
        "bsw": [
          "MULTI Sniper Rifle"
        ],
        "ccw": [
          "Knife",
          "Breaker Pistol",
          "Pistol"
        ]
      },
      {
        "id": 4,
        "name": "Missile Launcher",
        "legacy_code": "Missile Launcher",
        "cost": "29",
        "swc": "1.5",
        "spec": [],
        "bsw": [
          "Missile Launcher"
        ],
        "ccw": [
          "Knife",
          "Breaker Pistol",
          "Pistol"
        ]
      },
      {
        "id": 5,
        "name": "Spitfire",
        "legacy_code": "Spitfire",
        "cost": "30",
        "swc": "1.5",
        "spec": [],
        "bsw": [
          "Spitfire"
        ],
        "ccw": [
          "Knife",
          "Breaker Pistol",
          "Pistol"
        ]
      },
      {
        "id": 6,
        "name": "Observer",
        "legacy_code": "Observer",
        "cost": "27",
        "swc": "0",
        "spec": [
          "Forward Observer",
          "Sensor"
        ],
        "bsw": [
          "Combi Rifle",
          "Light Flamethrower"
        ],
        "ccw": [
          "Knife",
          "Breaker Pistol",
          "Pistol"
        ]
      },
      {
        "id": 7,
        "name": "Lieutenant",
        "legacy_code": "Lieutenant",
        "cost": "25",
        "swc": "0",
        "spec": [
          "Lieutenant"
        ],
        "bsw": [
          "Combi Rifle",
          "Light Flamethrower"
        ],
        "ccw": [
          "Knife",
          "Breaker Pistol",
          "Pistol"
        ]
      }
    ]
  },
  {
    "id": 5003,
    "army": "Nomads",
    "isc": "Securitate",
    "legacy_isc": "Securitate",
    "name": "Securitate",
    "type": "LI",
    "classification": "Line",
    "imp": "",
    "irr": "",
    "cube": "X",
    "mov": "4-4",
    "cc": "13",
    "bs": "12",
    "ph": "10",
    "wip": "14",
    "arm": "1",
    "bts": "0",
    "w": "1",
    "s": "2",
    "ava": "4",
    "spec": [
      "Repeater",
      "Sixth Sense L2"
    ],
    "childs": [
      {
        "id": 1,
        "name": "Combi",
        "legacy_code": "Default",
        "cost": "23",
        "swc": "0",
        "spec": [],
        "bsw": [
          "Combi Rifle",
          "Light Shotgun"
        ],
        "ccw": [
          "Knife",
          "Pistol"
        ]
      },
      {
        "id": 2,
        "name": "HMG",
        "legacy_code": "HMG",
        "cost": "27",
        "swc": "1",
        "spec": [],
        "bsw": [
          "HMG"
        ],
        "ccw": [
          "Knife",
          "Pistol"
        ]
      },
      {
        "id": 3,
        "name": "MULTI Sniper Rifle",
        "legacy_code": "MULTI Sniper Rifle",
        "cost": "27",
        "swc": "1.5",
        "spec": [],
        "bsw": [
          "MULTI Sniper Rifle"
        ],
        "ccw": [
          "Knife",
          "Pistol"
        ]
      },
      {
        "id": 4,
        "name": "Hacker",
        "legacy_code": "Hacker",
        "cost": "31",
        "swc": "0.5",
        "spec": [
          "Hacking Device"
        ],
        "bsw": [
          "Combi Rifle",
          "Light Shotgun"
        ],
        "ccw": [
          "Knife",
          "Pistol"
        ]
      },
      {
        "id": 5,
        "name": "Paramedic",
        "legacy_code": "Paramedic",
        "cost": "25",
        "swc": "0",
        "spec": [
          "MediKit"
        ],
        "bsw": [
          "Combi Rifle",
          "Light Shotgun"
        ],
        "ccw": [
          "Knife",
          "Pistol"
        ]
      },
      {
        "id": 6,
        "name": "Lieutenant",
        "legacy_code": "Lieutenant",
        "cost": "23",
        "swc": "0",
        "spec": [
          "Lieutenant"
        ],
        "bsw": [
          "Combi Rifle",
          "Light Shotgun"
        ],
        "ccw": [
          "Knife",
          "Pistol"
        ]
      }
    ]
  },
  {
    "id": 5004,
    "army": "Nomads",
    "isc": "Hellcats",
    "legacy_isc": "Hellcats",
    "name": "Hellcat",
    "type": "MI",
    "classification": "Elite",
    "imp": "",
    "irr": "",
    "cube": "X",
    "mov": "4-2",
    "cc": "14",
    "bs": "12",
    "ph": "12",
    "wip": "13",
    "arm": "2",
    "bts": "3",
    "w": "1",
    "s": "2",
    "ava": "4",
    "spec": [
      "AD: Superior Combat Jump / Zero-G",
      "V: Courage"
    ],
    "childs": [
      {
        "id": 1,
        "name": "Combi",
        "legacy_code": "Default",
        "cost": "22",
        "swc": "0",
        "spec": [],
        "bsw": [
          "Combi Rifle"
        ],
        "ccw": [
          "Knife",
          "Pistol"
        ]
      },
      {
        "id": 2,
        "name": "HMG",
        "legacy_code": "HMG",
        "cost": "31",
        "swc": "1.5",
        "spec": [],
        "bsw": [
          "HMG",
          "E/Mauler"
        ],
        "ccw": [
          "Knife",
          "Pistol"
        ]
      },
      {
        "id": 3,
        "name": "Boarding Shotgun",
        "legacy_code": "Boarding Shotgun",
        "cost": "21",
        "swc": "0",
        "spec": [],
        "bsw": [
          "Boarding Shotgun"
        ],
        "ccw": [
          "Knife",
          "Pistol"
        ]
      },
      {
        "id": 4,
        "name": "Adhesive",
        "legacy_code": "Adhesive",
        "cost": "23",
        "swc": "0.5",
        "spec": [],
        "bsw": [
          "Adhesive Launcher",
          "Combi Rifle"
        ],
        "ccw": [
          "Knife",
          "Pistol"
        ]
      },
      {
        "id": 5,
        "name": "Spitfire",
        "legacy_code": "Spitfire",
        "cost": "28",
        "swc": "1.5",
        "spec": [],
        "bsw": [
          "Spitfire"
        ],
        "ccw": [
          "Knife",
          "Pistol"
        ]
      },
      {
        "id": 6,
        "name": "Hacker",
        "legacy_code": "Hacker",
        "cost": "28",
        "swc": "0.5",
        "spec": [
          "Assault Hacking Device"
        ],
        "bsw": [
          "Combi Rifle"
        ],
        "ccw": [
          "Knife",
          "Pistol"
        ]
      },
      {
        "id": 7,
        "name": "Deployable Repeater",
        "legacy_code": "Deployable Repeater",
        "cost": "23",
        "swc": "0.5",
        "spec": [
          "Deployable Repeater"
        ],
        "bsw": [
          "Combi Rifle"
        ],
        "ccw": [
          "Knife",
          "Pistol"
        ]
      },
      {
        "id": 8,
        "name": "Paramedic",
        "legacy_code": "Paramedic",
        "cost": "24",
        "swc": "0",
        "spec": [
          "MediKit"
        ],
        "bsw": [
          "Combi Rifle"
        ],
        "ccw": [
          "Knife",
          "Pistol"
        ]
      },
      {
        "id": 9,
        "name": "Lieutenant",
        "legacy_code": "Lieutenant",
        "cost": "22",
        "swc": "1",
        "spec": [
          "Lieutenant"
        ],
        "bsw": [
          "Combi Rifle"
        ],
        "ccw": [
          "Knife",
          "Pistol"
        ]
      }
    ]
  },
  {
    "id": 5005,
    "army": "Nomads",
    "isc": "Intruders",
    "legacy_isc": "Intruders",
    "name": "Intruder",
    "type": "MI",
    "classification": "Elite",
    "imp": "",
    "irr": "",
    "cube": "X",
    "mov": "4-2",
    "cc": "14",
    "bs": "13",
    "ph": "12",
    "wip": "14",
    "arm": "3",
    "bts": "0",
    "w": "1",
    "s": "2",
    "ava": "2",
    "spec": [
      "CH: Camouflage",
      "Multispectral Visor L2",
      "Multiterrain"
    ],
    "childs": [
      {
        "id": 1,
        "name": "Combi",
        "legacy_code": "Default",
        "cost": "35",
        "swc": "0",
        "spec": [],
        "bsw": [
          "Combi Rifle",
          "Light Flamethrower",
          "Grenades"
        ],
        "ccw": [
          "CCW",
          "Pistol"
        ]
      },
      {
        "id": 2,
        "name": "HMG",
        "legacy_code": "HMG",
        "cost": "42",
        "swc": "1.5",
        "spec": [],
        "bsw": [
          "HMG",
          "Grenades"
        ],
        "ccw": [
          "CCW",
          "Pistol"
        ]
      },
      {
        "id": 3,
        "name": "Adhesive",
        "legacy_code": "Adhesive",
        "cost": "36",
        "swc": "1",
        "spec": [],
        "bsw": [
          "Adhesive Launcher",
          "Combi Rifle",
          "Light Flamethrower"
        ],
        "ccw": [
          "CCW",
          "Pistol"
        ]
      },
      {
        "id": 4,
        "name": "MULTI Sniper Rifle",
        "legacy_code": "MULTI Sniper Rifle",
        "cost": "43",
        "swc": "1.5",
        "spec": [
          "X Visor"
        ],
        "bsw": [
          "MULTI Sniper Rifle"
        ],
        "ccw": [
          "CCW",
          "Pistol"
        ]
      },
      {
        "id": 5,
        "name": "Hacker",
        "legacy_code": "Hacker",
        "cost": "43",
        "swc": "0.5",
        "spec": [
          "Hacking Device"
        ],
        "bsw": [
          "Combi Rifle",
          "Light Flamethrower"
        ],
        "ccw": [
          "CCW",
          "Pistol"
        ]
      },
      {
        "id": 6,
        "name": "Lieutenant",
        "legacy_code": "Lieutenant",
        "cost": "35",
        "swc": "0",
        "spec": [
          "Lieutenant"
        ],
        "bsw": [
          "Combi Rifle",
          "Light Flamethrower",
          "Grenades"
        ],
        "ccw": [
          "CCW",
          "Pistol"
        ]
      }
    ]
  },
  {
    "id": 5006,
    "army": "Nomads",
    "isc": "Reverend Moiras",
    "legacy_isc": "Reverend Moiras",
    "name": "Reverend Moira",
    "type": "MI",
    "classification": "Elite",
    "imp": "",
    "irr": "",
    "cube": "X",
    "mov": "4-2",
    "cc": "16",
    "bs": "12",
    "ph": "12",
    "wip": "14",
    "arm": "3",
    "bts": "0",
    "w": "1",
    "s": "2",
    "ava": "2",
    "spec": [
      "Multiterrain",
      "ODD: Optical Disruptor",
      "Religious Troop"
    ],
    "childs": [
      {
        "id": 1,
        "name": "MULTI",
        "legacy_code": "Default",
        "cost": "30",
        "swc": "0",
        "spec": [],
        "bsw": [
          "MULTI Rifle"
        ],
        "ccw": [
          "Pistol",
          "Shock CCW"
        ]
      },
      {
        "id": 2,
        "name": "E/Mitter",
        "legacy_code": "E/Mitter",
        "cost": "28",
        "swc": "0",
        "spec": [],
        "bsw": [
          "Combi Rifle",
          "E/Mitter"
        ],
        "ccw": [
          "Pistol",
          "Shock CCW"
        ]
      },
      {
        "id": 3,
        "name": "AP CCW",
        "legacy_code": "AP CCW",
        "cost": "30",
        "swc": "0",
        "spec": [],
        "bsw": [
          "MULTI Rifle"
        ],
        "ccw": [
          "Pistol",
          "AP CCW"
        ]
      },
      {
        "id": 4,
        "name": "HMG",
        "legacy_code": "HMG",
        "cost": "34",
        "swc": "1.5",
        "spec": [],
        "bsw": [
          "HMG"
        ],
        "ccw": [
          "Pistol",
          "Shock CCW"
        ]
      },
      {
        "id": 5,
        "name": "MULTI Sniper Rifle",
        "legacy_code": "MULTI Sniper Rifle",
        "cost": "34",
        "swc": "1.5",
        "spec": [],
        "bsw": [
          "MULTI Sniper Rifle"
        ],
        "ccw": [
          "Pistol",
          "Shock CCW"
        ]
      },
      {
        "id": 6,
        "name": "E/M LGL",
        "legacy_code": "E/M LGL",
        "cost": "34",
        "swc": "1",
        "spec": [],
        "bsw": [
          "E/M Light Grenade Launcher",
          "MULTI Rifle"
        ],
        "ccw": [
          "Pistol",
          "Shock CCW"
        ]
      },
      {
        "id": 7,
        "name": "Hacker",
        "legacy_code": "Hacker",
        "cost": "36",
        "swc": "0.5",
        "spec": [
          "Assault Hacking Device"
        ],
        "bsw": [
          "MULTI Rifle"
        ],
        "ccw": [
          "Pistol",
          "Shock CCW"
        ]
      },
      {
        "id": 8,
        "name": "Lieutenant",
        "legacy_code": "Lieutenant",
        "cost": "30",
        "swc": "1",
        "spec": [
          "Lieutenant"
        ],
        "bsw": [
          "MULTI Rifle"
        ],
        "ccw": [
          "Pistol",
          "Shock CCW"
        ]
      }
    ]
  },
  {
    "id": 5007,
    "army": "Nomads",
    "isc": "Reverend Healers",
    "legacy_isc": "Reverend Healers",
    "name": "Reverend Healer",
    "type": "MI",
    "classification": "Elite",
    "imp": "",
    "irr": "",
    "cube": "X",
    "mov": "4-2",
    "cc": "19",
    "bs": "13",
    "ph": "12",
    "wip": "14",
    "arm": "3",
    "bts": "3",
    "w": "1",
    "s": "2",
    "ava": "1",
    "spec": [
      "MediKit",
      "CH: Mimetism",
      "Doctor",
      "Religious Troop"
    ],
    "childs": [
      {
        "id": 1,
        "name": "Combi",
        "legacy_code": "Default",
        "cost": "33",
        "swc": "0",
        "spec": [],
        "bsw": [
          "Nanopulser",
          "Combi Rifle"
        ],
        "ccw": [
          "Pistol",
          "EXP CCW"
        ]
      },
      {
        "id": 2,
        "name": "MULTI",
        "legacy_code": "MULTI",
        "cost": "37",
        "swc": "0",
        "spec": [],
        "bsw": [
          "Nanopulser",
          "MULTI Rifle"
        ],
        "ccw": [
          "Pistol",
          "EXP CCW"
        ]
      },
      {
        "id": 3,
        "name": "Boarding Shotgun",
        "legacy_code": "Boarding Shotgun",
        "cost": "32",
        "swc": "0",
        "spec": [],
        "bsw": [
          "Nanopulser",
          "Boarding Shotgun"
        ],
        "ccw": [
          "Pistol",
          "EXP CCW"
        ]
      }
    ]
  },
  {
    "id": 5008,
    "army": "Nomads",
    "isc": "Mobile Brigada",
    "legacy_isc": "Mobile Brigada",
    "name": "Mobile Brigada",
    "type": "HI",
    "classification": "Veteran",
    "imp": "",
    "irr": "",
    "cube": "X",
    "hackable": "X",
    "mov": "4-4",
    "cc": "15",
    "bs": "13",
    "ph": "14",
    "wip": "13",
    "arm": "4",
    "bts": "3",
    "w": "2",
    "s": "2",
    "ava": "2",
    "spec": [
      "V: Courage"
    ],
    "childs": [
      {
        "id": 1,
        "name": "MULTI",
        "legacy_code": "Default",
        "cost": "39",
        "swc": "0",
        "spec": [],
        "bsw": [
          "MULTI Rifle",
          "Light Flamethrower"
        ],
        "ccw": [
          "Knife",
          "Pistol"
        ]
      },
      {
        "id": 2,
        "name": "HMG",
        "legacy_code": "HMG",
        "cost": "42",
        "swc": "2",
        "spec": [],
        "bsw": [
          "HMG"
        ],
        "ccw": [
          "Knife",
          "Pistol"
        ]
      },
      {
        "id": 3,
        "name": "Boarding Shotgun",
        "legacy_code": "Boarding Shotgun",
        "cost": "33",
        "swc": "0",
        "spec": [],
        "bsw": [
          "Boarding Shotgun"
        ],
        "ccw": [
          "Knife",
          "Pistol"
        ]
      },
      {
        "id": 4,
        "name": "Combi",
        "legacy_code": "Combi",
        "cost": "34",
        "swc": "0",
        "spec": [],
        "bsw": [
          "Combi Rifle"
        ],
        "ccw": [
          "Knife",
          "Pistol"
        ]
      },
      {
        "id": 5,
        "name": "TinBot",
        "legacy_code": "TinBot",
        "cost": "37",
        "swc": "0.5",
        "spec": [
          "TinBot B (Deflector L2)"
        ],
        "bsw": [
          "Combi Rifle"
        ],
        "ccw": [
          "Knife",
          "Pistol"
        ]
      },
      {
        "id": 6,
        "name": "MULTI Lieutenant",
        "legacy_code": "Lieutenant",
        "cost": "39",
        "swc": "0",
        "spec": [
          "Lieutenant"
        ],
        "bsw": [
          "MULTI Rifle",
          "Light Flamethrower"
        ],
        "ccw": [
          "Knife",
          "Pistol"
        ]
      },
      {
        "id": 7,
        "name": "Missile Launcher",
        "legacy_code": "Missile Launcher",
        "cost": "40",
        "swc": "2",
        "spec": [],
        "bsw": [
          "Missile Launcher"
        ],
        "ccw": [
          "Knife",
          "Pistol"
        ]
      },
      {
        "id": 8,
        "name": "Hacker",
        "legacy_code": "Hacker",
        "cost": "43",
        "swc": "0.5",
        "spec": [
          "Hacking Device"
        ],
        "bsw": [
          "Combi Rifle"
        ],
        "ccw": [
          "Knife",
          "Pistol"
        ]
      },
      {
        "id": 9,
        "name": "BSG Lieutenant",
        "cost": "33",
        "swc": "0",
        "spec": [
          "Lieutenant"
        ],
        "bsw": [
          "Boarding Shotgun"
        ],
        "ccw": [
          "Knife",
          "Pistol"
        ]
      }
    ]
  },
  {
    "id": 5009,
    "army": "Nomads",
    "isc": "Lizard",
    "legacy_isc": "Lizard",
    "name": "Lizard",
    "ava": "1",
    "spec": [],
    "profiles": [
      {
        "id": 1,
        "name": "Lizard",
        "type": "TAG",
        "classification": "Mechanized",
        "imp": "",
        "irr": "",
        "cube": "X",
        "hackable": "X",
        "mov": "6-4",
        "cc": "17",
        "bs": "14",
        "ph": "17",
        "wip": "13",
        "arm": "8",
        "bts": "6",
        "w": "3",
        "s": "7",
        "spec": [
          "ECM",
          "Manned"
        ],
        "bsw": [],
        "ccw": []
      },
      {
        "id": 2,
        "name": "Pilot",
        "type": "LI",
        "imp": "",
        "irr": "",
        "cube": "X",
        "hackable": "",
        "mov": "4-4",
        "cc": "13",
        "bs": "11",
        "ph": "10",
        "wip": "13",
        "arm": "0",
        "bts": "0",
        "w": "1",
        "s": "2",
        "ava": " ",
        "spec": [
          "Pilot",
          "Specialist Operative"
        ],
        "bsw": [
          "Submachine Gun"
        ],
        "ccw": [
          "Knife",
          "Pistol"
        ]
      }
    ],
    "childs": [
      {
        "id": 1,
        "name": "HGL",
        "legacy_code": "Default",
        "cost": "87",
        "swc": "2.5",
        "spec": [],
        "bsw": [
          "MULTI HMG",
          "Heavy Grenade Launcher"
        ],
        "ccw": []
      },
      {
        "id": 2,
        "name": "HFT",
        "legacy_code": "HFT",
        "cost": "87",
        "swc": "2",
        "spec": [],
        "bsw": [
          "MULTI HMG",
          "Heavy Flamethrower"
        ],
        "ccw": []
      }
    ]
  },
  {
    "id": 5010,
    "army": "Nomads",
    "isc": "Szalamandra Squadron",
    "legacy_isc": "Szalamandra",
    "name": "Szalamandra",
    "ava": "1",
    "spec": [],
    "profiles": [
      {
        "id": 1,
        "name": "Szalamandra",
        "type": "TAG",
        "classification": "Mechanized",
        "imp": "",
        "irr": "",
        "cube": "X",
        "hackable": "X",
        "mov": "6-4",
        "cc": "17",
        "bs": "14",
        "ph": "17",
        "wip": "13",
        "arm": "8",
        "bts": "9",
        "w": "3",
        "s": "7",
        "spec": [
          "ECM",
          "Manned"
        ],
        "bsw": [],
        "ccw": []
      },
      {
        "id": 2,
        "name": "Pilot",
        "type": "LI",
        "imp": "",
        "irr": "",
        "cube": "X",
        "hackable": "",
        "mov": "4-4",
        "cc": "13",
        "bs": "11",
        "ph": "10",
        "wip": "13",
        "arm": "0",
        "bts": "0",
        "w": "1",
        "s": "2",
        "ava": " ",
        "spec": [
          "Pilot",
          "Killer Hacking Device"
        ],
        "bsw": [
          "Contender"
        ],
        "ccw": [
          "Knife",
          "Pistol"
        ]
      }
    ],
    "childs": [
      {
        "id": 1,
        "name": "HMC",
        "legacy_code": "Default",
        "cost": "90",
        "swc": "2",
        "spec": [],
        "bsw": [
          "HMC",
          "Heavy Flamethrower"
        ],
        "ccw": []
      }
    ]
  },
  {
    "id": 5011,
    "army": "Nomads",
    "isc": "Zeros",
    "legacy_isc": "Zeros",
    "name": "Zero",
    "type": "SK",
    "classification": "Specially Trained",
    "imp": "",
    "irr": "",
    "cube": "X",
    "mov": "4-4",
    "cc": "13",
    "bs": "11",
    "ph": "12",
    "wip": "13",
    "arm": "0",
    "bts": "0",
    "w": "1",
    "s": "2",
    "ava": "2",
    "spec": [
      "CH: Camouflage",
      "Infiltration",
      "Multiterrain"
    ],
    "childs": [
      {
        "id": 1,
        "name": "Combi",
        "legacy_code": "Default",
        "cost": "18",
        "swc": "0",
        "spec": [],
        "bsw": [
          "Combi Rifle",
          "Antipersonnel Mines"
        ],
        "ccw": [
          "Knife",
          "Pistol"
        ]
      },
      {
        "id": 2,
        "name": "Minelayer",
        "legacy_code": "Minelayer",
        "cost": "19",
        "swc": "0.5",
        "spec": [
          "Minelayer"
        ],
        "bsw": [
          "Combi Rifle",
          "Antipersonnel Mines"
        ],
        "ccw": [
          "Knife",
          "Pistol"
        ]
      },
      {
        "id": 3,
        "name": "Boarding Shotgun",
        "legacy_code": "Boarding Shotgun",
        "cost": "17",
        "swc": "0",
        "spec": [],
        "bsw": [
          "Boarding Shotgun",
          "Antipersonnel Mines"
        ],
        "ccw": [
          "Knife",
          "Pistol"
        ]
      },
      {
        "id": 4,
        "name": "MULTI Sniper Rifle",
        "legacy_code": "MULTI Sniper Rifle",
        "cost": "26",
        "swc": "1.5",
        "spec": [],
        "bsw": [
          "MULTI Sniper Rifle",
          "Antipersonnel Mines"
        ],
        "ccw": [
          "Knife",
          "Pistol"
        ]
      },
      {
        "id": 5,
        "name": "Hacker",
        "legacy_code": "Hacker",
        "cost": "24",
        "swc": "0.5",
        "spec": [
          "Assault Hacking Device"
        ],
        "bsw": [
          "Combi Rifle",
          "Antipersonnel Mines"
        ],
        "ccw": [
          "Knife",
          "Pistol"
        ]
      },
      {
        "id": 6,
        "name": "Observer",
        "legacy_code": "Observer",
        "cost": "19",
        "swc": "0",
        "spec": [
          "Forward Observer"
        ],
        "bsw": [
          "Combi Rifle",
          "Antipersonnel Mines"
        ],
        "ccw": [
          "Knife",
          "Pistol"
        ]
      },
      {
        "id": 7,
        "name": "Repeater/E-Mauler",
        "legacy_code": "Repeater/E-Mauler",
        "cost": "19",
        "swc": "0",
        "spec": [
          "Deployable Repeater"
        ],
        "bsw": [
          "Combi Rifle",
          "E/Mauler"
        ],
        "ccw": [
          "Knife",
          "Pistol"
        ]
      },
      {
        "id": 8,
        "name": "Killer Hacker",
        "cost": "21",
        "swc": "0",
        "spec": [
          "Killer Hacking Device"
        ],
        "bsw": [
          "Combi Rifle",
          "Antipersonnel Mines"
        ],
        "ccw": [
          "Knife",
          "Pistol"
        ]
      }
    ]
  },
  {
    "id": 5012,
    "army": "Nomads",
    "isc": "Spektrs",
    "legacy_isc": "Spektrs",
    "name": "Spektr",
    "type": "SK",
    "classification": "Specially Trained",
    "imp": "",
    "irr": "",
    "cube": "X",
    "mov": "4-4",
    "cc": "13",
    "bs": "12",
    "ph": "12",
    "wip": "14",
    "arm": "1",
    "bts": "3",
    "w": "1",
    "s": "2",
    "ava": "2",
    "spec": [
      "CH: TO Camouflage",
      "Infiltration",
      "Multiterrain"
    ],
    "childs": [
      {
        "id": 1,
        "name": "Combi",
        "legacy_code": "Default",
        "cost": "31",
        "swc": "0",
        "spec": [],
        "bsw": [
          "Antipersonnel Mines",
          "Combi Rifle"
        ],
        "ccw": [
          "Knife",
          "Pistol"
        ]
      },
      {
        "id": 2,
        "name": "MULTI Sniper Rifle",
        "legacy_code": "MULTI Sniper Rifle",
        "cost": "39",
        "swc": "1.5",
        "spec": [],
        "bsw": [
          "Antipersonnel Mines",
          "MULTI Sniper Rifle"
        ],
        "ccw": [
          "Knife",
          "Pistol"
        ]
      },
      {
        "id": 3,
        "name": "Hacker",
        "legacy_code": "Hacker",
        "cost": "36",
        "swc": "0.5",
        "spec": [
          "Assault Hacking Device"
        ],
        "bsw": [
          "Combi Rifle"
        ],
        "ccw": [
          "Knife",
          "Pistol"
        ]
      },
      {
        "id": 4,
        "name": "Observer",
        "legacy_code": "Observer",
        "cost": "32",
        "swc": "0",
        "spec": [
          "Forward Observer"
        ],
        "bsw": [
          "Combi Rifle",
          "Antipersonnel Mines"
        ],
        "ccw": [
          "Knife",
          "Pistol"
        ]
      },
      {
        "id": 5,
        "name": "Repeater/E-Mauler",
        "legacy_code": "Repeater/E-Mauler",
        "cost": "32",
        "swc": "0",
        "spec": [
          "Deployable Repeater"
        ],
        "bsw": [
          "E/Mauler",
          "Combi Rifle"
        ],
        "ccw": [
          "Knife",
          "Pistol"
        ]
      },
      {
        "id": 6,
        "name": "Boarding Shotgun",
        "legacy_code": "Boarding Shotgun",
        "cost": "30",
        "swc": "0",
        "spec": [],
        "bsw": [
          "Boarding Shotgun",
          "Antipersonnel Mines"
        ],
        "ccw": [
          "Knife",
          "Pistol"
        ]
      }
    ]
  },
  {
    "id": 5013,
    "army": "Nomads",
    "isc": "Corregidor Bandits",
    "legacy_isc": "Corregidor Bandits",
    "name": "Bandit",
    "type": "SK",
    "classification": "Specially Trained",
    "imp": "",
    "irr": "X",
    "cube": "X",
    "mov": "4-4",
    "cc": "21",
    "bs": "12",
    "ph": "13",
    "wip": "12",
    "arm": "1",
    "bts": "3",
    "w": "1",
    "s": "2",
    "ava": "2",
    "spec": [
      "Martial Arts L2",
      "CH: Camouflage",
      "Infiltration",
      "Multiterrain",
      "Scavenger"
    ],
    "childs": [
      {
        "id": 1,
        "name": "Combi",
        "legacy_code": "Default",
        "cost": "27",
        "swc": "0",
        "spec": [],
        "bsw": [
          "Combi Rifle",
          "Antipersonnel Mines"
        ],
        "ccw": [
          "Pistol",
          "DA CCW"
        ]
      },
      {
        "id": 2,
        "name": "Boarding Shotgun",
        "legacy_code": "Boarding Shotgun",
        "cost": "26",
        "swc": "0",
        "spec": [],
        "bsw": [
          "Boarding Shotgun",
          "E/Mauler"
        ],
        "ccw": [
          "Pistol",
          "DA CCW"
        ]
      },
      {
        "id": 3,
        "name": "LSG+ADHL",
        "legacy_code": "LSG+ADHL",
        "cost": "22",
        "swc": "0",
        "spec": [],
        "bsw": [
          "Light Shotgun",
          "Adhesive Launcher"
        ],
        "ccw": [
          "Pistol",
          "DA CCW"
        ]
      },
      {
        "id": 4,
        "name": "Hacker",
        "legacy_code": "Hacker",
        "cost": "28",
        "swc": "0.5",
        "spec": [
          "Assault Hacking Device"
        ],
        "bsw": [
          "Light Shotgun",
          "Adhesive Launcher"
        ],
        "ccw": [
          "Pistol",
          "DA CCW"
        ]
      },
      {
        "id": 5,
        "name": "Observer",
        "legacy_code": "Observer",
        "cost": "23",
        "swc": "0",
        "spec": [
          "Forward Observer"
        ],
        "bsw": [
          "Light Shotgun",
          "Adhesive Launcher"
        ],
        "ccw": [
          "Pistol",
          "DA CCW"
        ]
      },
      {
        "id": 6,
        "name": "Deployable repeater",
        "legacy_code": "Deployable repeater",
        "cost": "28",
        "swc": "0",
        "spec": [
          "Deployable Repeater"
        ],
        "bsw": [
          "Combi Rifle",
          "Antipersonnel Mines"
        ],
        "ccw": [
          "Pistol",
          "DA CCW"
        ]
      },
      {
        "id": 7,
        "name": "Killer Hacker",
        "cost": "25",
        "swc": "0",
        "spec": [
          "Killer Hacking Device"
        ],
        "bsw": [
          "Light Shotgun",
          "Adhesive Launcher"
        ],
        "ccw": [
          "Pistol",
          "DA CCW"
        ]
      }
    ]
  },
  {
    "id": 5014,
    "army": "Nomads",
    "isc": "Die Morlock Gruppe",
    "legacy_isc": "Die Morlock Gruppe",
    "name": "Morlock",
    "type": "WB",
    "classification": "Line",
    "imp": "X",
    "irr": "X",
    "cube": "",
    "mov": "4-4",
    "cc": "22",
    "bs": "11",
    "ph": "13",
    "wip": "14",
    "arm": "1",
    "bts": "0",
    "w": "1",
    "s": "2",
    "ava": "T",
    "spec": [
      "Martial Arts L2",
      "MetaChemistry",
      "Kinematika L1"
    ],
    "childs": [
      {
        "id": 1,
        "name": "Combi",
        "legacy_code": "Default",
        "cost": "14",
        "swc": "0",
        "spec": [],
        "bsw": [
          "Combi Rifle",
          "Smoke Grenades"
        ],
        "ccw": [
          "Pistol",
          "AP CCW"
        ]
      },
      {
        "id": 2,
        "name": "Assault Pistol",
        "legacy_code": "Assault Pistol",
        "cost": "8",
        "swc": "0",
        "spec": [],
        "bsw": [
          "Chain Rifle",
          "Smoke Grenades"
        ],
        "ccw": [
          "Assault Pistol",
          "AP CCW"
        ]
      },
      {
        "id": 3,
        "name": "E/M CCW",
        "legacy_code": "E/M CCW",
        "cost": "6",
        "swc": "0",
        "spec": [],
        "bsw": [
          "Chain Rifle",
          "Smoke Grenades"
        ],
        "ccw": [
          "E/M CCW",
          "Pistol"
        ]
      },
      {
        "id": 4,
        "name": "Chain Rifle",
        "legacy_code": "Chain Rifle",
        "cost": "6",
        "swc": "0",
        "spec": [],
        "bsw": [
          "Chain Rifle",
          "Smoke Grenades"
        ],
        "ccw": [
          "Pistol",
          "DA CCW"
        ]
      },
      {
        "id": 5,
        "name": "Boarding Shotgun",
        "legacy_code": "Boarding Shotgun",
        "cost": "13",
        "swc": "0",
        "spec": [],
        "bsw": [
          "Boarding Shotgun",
          "Smoke Grenades"
        ],
        "ccw": [
          "Pistol",
          "AP CCW"
        ]
      },
      {
        "id": 6,
        "name": "Smoke GL",
        "legacy_code": "Smoke GL",
        "cost": "14",
        "swc": "1",
        "spec": [],
        "bsw": [
          "Combi Rifle",
          "Smoke Light Grenade Launcher"
        ],
        "ccw": [
          "Pistol",
          "AP CCW"
        ]
      }
    ]
  },
  {
    "id": 5015,
    "army": "Nomads",
    "isc": "Corregidor Jaguars",
    "legacy_isc": "Corregidor Jaguars",
    "name": "Jaguar",
    "type": "WB",
    "classification": "Line",
    "imp": "F",
    "irr": "",
    "cube": "",
    "mov": "4-4",
    "cc": "21",
    "bs": "11",
    "ph": "13",
    "wip": "12",
    "arm": "1",
    "bts": "0",
    "w": "1",
    "s": "2",
    "ava": "4",
    "spec": [
      "Martial Arts L2",
      "V: Dogged"
    ],
    "childs": [
      {
        "id": 1,
        "name": "Light Shotgun",
        "legacy_code": "Default",
        "cost": "13",
        "swc": "0",
        "spec": [],
        "bsw": [
          "Light Shotgun",
          "Smoke Grenades"
        ],
        "ccw": [
          "Pistol",
          "E/M CCW"
        ]
      },
      {
        "id": 2,
        "name": "Chain Rifle",
        "legacy_code": "Chain Rifle",
        "cost": "10",
        "swc": "0",
        "spec": [],
        "bsw": [
          "Chain Rifle",
          "Smoke Grenades"
        ],
        "ccw": [
          "Pistol",
          "DA CCW"
        ]
      },
      {
        "id": 3,
        "name": "ADHL",
        "legacy_code": "ADHL",
        "cost": "13",
        "swc": "0.5",
        "spec": [],
        "bsw": [
          "Adhesive Launcher",
          "Panzerfaust"
        ],
        "ccw": [
          "Pistol",
          "DA CCW"
        ]
      }
    ]
  },
  {
    "id": 5016,
    "army": "Nomads",
    "isc": "Daktaris",
    "legacy_isc": "Daktaris",
    "name": "Daktari",
    "type": "LI",
    "classification": "Support",
    "imp": "",
    "irr": "",
    "cube": "X",
    "mov": "4-4",
    "cc": "13",
    "bs": "11",
    "ph": "10",
    "wip": "13",
    "arm": "1",
    "bts": "0",
    "w": "1",
    "s": "2",
    "ava": "1",
    "spec": [
      "Doctor",
      "MediKit"
    ],
    "childs": [
      {
        "id": 1,
        "name": "Doctor",
        "legacy_code": "Default",
        "cost": "14",
        "swc": "0",
        "spec": [],
        "bsw": [
          "Combi Rifle"
        ],
        "ccw": [
          "Knife",
          "Pistol"
        ]
      }
    ]
  },
  {
    "id": 5017,
    "army": "Nomads",
    "isc": "Clockmakers",
    "legacy_isc": "Clockmakers",
    "name": "Clockmaker",
    "type": "LI",
    "classification": "Support",
    "imp": "",
    "irr": "",
    "cube": "X",
    "mov": "4-4",
    "cc": "13",
    "bs": "11",
    "ph": "10",
    "wip": "15",
    "arm": "1",
    "bts": "3",
    "w": "1",
    "s": "2",
    "ava": "1",
    "spec": [
      "Engineer"
    ],
    "childs": [
      {
        "id": 1,
        "name": "Engineer",
        "legacy_code": "Default",
        "cost": "18",
        "swc": "0",
        "spec": [],
        "bsw": [
          "Combi Rifle"
        ],
        "ccw": [
          "D-Charges",
          "Knife",
          "Pistol"
        ]
      }
    ]
  },
  {
    "id": 5018,
    "army": "Nomads",
    "isc": "Interventors",
    "legacy_isc": "Interventor",
    "name": "Interventor",
    "type": "LI",
    "classification": "Support",
    "imp": "",
    "irr": "",
    "cube": "X",
    "mov": "4-4",
    "cc": "13",
    "bs": "11",
    "ph": "10",
    "wip": "15",
    "arm": "1",
    "bts": "9",
    "w": "1",
    "s": "2",
    "ava": "2",
    "spec": [],
    "childs": [
      {
        "id": 1,
        "name": "Hacker",
        "legacy_code": "Default",
        "cost": "25",
        "swc": "0.5",
        "spec": [
          "Hacking Device Plus"
        ],
        "bsw": [
          "Combi Rifle"
        ],
        "ccw": [
          "Knife",
          "Pistol"
        ]
      },
      {
        "id": 2,
        "name": "Combi Panda",
        "legacy_code": "Combi Panda",
        "cost": "27",
        "swc": "0.5",
        "spec": [
          "Hacking Device Plus"
        ],
        "bsw": [
          "Combi Rifle",
          "FastPanda"
        ],
        "ccw": [
          "Knife",
          "Pistol"
        ]
      },
      {
        "id": 3,
        "name": "Boarding Shotgun Panda",
        "legacy_code": "Boarding Shotgun Panda",
        "cost": "26",
        "swc": "0.5",
        "spec": [
          "Hacking Device Plus"
        ],
        "bsw": [
          "Boarding Shotgun",
          "FastPanda"
        ],
        "ccw": [
          "Knife",
          "Pistol"
        ]
      },
      {
        "id": 4,
        "name": "Boarding Shotgun",
        "legacy_code": "Boarding Shotgun",
        "cost": "24",
        "swc": "0.5",
        "spec": [
          "Hacking Device Plus"
        ],
        "bsw": [
          "Boarding Shotgun"
        ],
        "ccw": [
          "Knife",
          "Pistol"
        ]
      },
      {
        "id": 5,
        "name": "Lieutenant",
        "legacy_code": "Lieutenant",
        "cost": "25",
        "swc": "0.5",
        "spec": [
          "Hacking Device Plus",
          "Lieutenant"
        ],
        "bsw": [
          "Combi Rifle"
        ],
        "ccw": [
          "Knife",
          "Pistol"
        ]
      },
      {
        "id": 6,
        "name": "Lieutenant Panda",
        "legacy_code": "Lieutenant Panda",
        "cost": "27",
        "swc": "0.5",
        "spec": [
          "Hacking Device Plus",
          "Lieutenant"
        ],
        "bsw": [
          "Combi Rifle",
          "FastPanda"
        ],
        "ccw": [
          "Knife",
          "Pistol"
        ]
      },
      {
        "id": 7,
        "name": "Killer Hacker",
        "cost": "20",
        "swc": "0",
        "spec": [
          "Killer Hacking Device: UPGRADE: Lightning"
        ],
        "bsw": [
          "Boarding Shotgun",
          "FastPanda"
        ],
        "ccw": [
          "Knife",
          "Pistol"
        ]
      }
    ]
  },
  {
    "id": 5019,
    "army": "Nomads",
    "isc": "Stempler Zond",
    "legacy_isc": "Stempler Zond",
    "name": "Stempler Zond",
    "type": "REM",
    "classification": "Support",
    "imp": "",
    "irr": "",
    "cube": "R",
    "hackable": "X",
    "mov": "6-4",
    "cc": "8",
    "bs": "11",
    "ph": "10",
    "wip": "13",
    "arm": "0",
    "bts": "3",
    "w": "1",
    "s": "3",
    "ava": "2",
    "spec": [
      "Climbing Plus",
      "Deactivator",
      "Forward Observer",
      "G: Remote Presence",
      "Repeater",
      "Sat-Lock",
      "Sensor",
      "Sniffer"
    ],
    "childs": [
      {
        "id": 1,
        "name": "Combi",
        "legacy_code": "Default",
        "cost": "17",
        "swc": "0",
        "spec": [],
        "bsw": [
          "Combi Rifle"
        ],
        "ccw": [
          "Electric Pulse"
        ]
      }
    ]
  },
  {
    "id": 5020,
    "army": "Nomads",
    "isc": "Reaktion Zond",
    "legacy_isc": "Reaktion Zond",
    "name": "Reaktion Zond",
    "type": "REM",
    "classification": "Support",
    "imp": "",
    "irr": "",
    "cube": "R",
    "hackable": "X",
    "mov": "6-4",
    "cc": "8",
    "bs": "11",
    "ph": "10",
    "wip": "13",
    "arm": "0",
    "bts": "3",
    "w": "1",
    "s": "3",
    "ava": "2",
    "spec": [
      "360° Visor",
      "Climbing Plus",
      "G: Remote Presence",
      "Total Reaction"
    ],
    "childs": [
      {
        "id": 1,
        "name": "HMG",
        "legacy_code": "Default",
        "cost": "26",
        "swc": "1",
        "spec": [],
        "bsw": [
          "HMG"
        ],
        "ccw": [
          "Electric Pulse"
        ]
      }
    ]
  },
  {
    "id": 5021,
    "army": "Nomads",
    "isc": "Vertigo Zond",
    "legacy_isc": "Vertigo Zond",
    "name": "Vertigo Zond",
    "type": "REM",
    "classification": "Support",
    "imp": "",
    "irr": "",
    "cube": "R",
    "hackable": "X",
    "mov": "6-4",
    "cc": "8",
    "bs": "12",
    "ph": "10",
    "wip": "13",
    "arm": "0",
    "bts": "3",
    "w": "1",
    "s": "3",
    "ava": "1",
    "spec": [
      "G: Remote Presence"
    ],
    "childs": [
      {
        "id": 1,
        "name": "Smart Missile Launcher",
        "legacy_code": "Default",
        "cost": "18",
        "swc": "1.5",
        "spec": [],
        "bsw": [
          "Smart Missile Launcher"
        ],
        "ccw": [
          "Electric Pulse"
        ]
      }
    ]
  },
  {
    "id": 5022,
    "army": "Nomads",
    "isc": "Meteor Zond",
    "legacy_isc": "Meteor Zond",
    "name": "Meteor Zond",
    "type": "REM",
    "classification": "Support",
    "imp": "",
    "irr": "",
    "cube": "R",
    "hackable": "X",
    "mov": "6-4",
    "cc": "8",
    "bs": "11",
    "ph": "11",
    "wip": "13",
    "arm": "0",
    "bts": "3",
    "w": "1",
    "s": "3",
    "ava": "1",
    "spec": [
      "AD: Combat Jump",
      "Forward Observer",
      "G: Remote Presence",
      "Sat-Lock",
      "Repeater",
      "Sensor"
    ],
    "childs": [
      {
        "id": 1,
        "name": "Combi",
        "legacy_code": "Default",
        "cost": "21",
        "swc": "1",
        "spec": [],
        "bsw": [
          "Combi Rifle"
        ],
        "ccw": [
          "Electric Pulse"
        ]
      }
    ]
  },
  {
    "id": 5023,
    "army": "Nomads",
    "isc": "Transductor Zond",
    "legacy_isc": "Transductor Zond",
    "name": "Transductor Zond",
    "type": "REM",
    "classification": "Support",
    "imp": "",
    "irr": "",
    "cube": "R",
    "hackable": "X",
    "mov": "6-6",
    "cc": "8",
    "bs": "8",
    "ph": "11",
    "wip": "13",
    "arm": "0",
    "bts": "3",
    "w": "1",
    "s": "3",
    "ava": "2",
    "spec": [
      "CH: Mimetism",
      "G: Remote Presence",
      "Repeater",
      "Sniffer"
    ],
    "childs": [
      {
        "id": 1,
        "name": "Repeater",
        "legacy_code": "Default",
        "cost": "8",
        "swc": "0",
        "spec": [],
        "bsw": [
          "Flash Pulse"
        ],
        "ccw": [
          "Electric Pulse"
        ]
      }
    ]
  },
  {
    "id": 5024,
    "army": "Nomads",
    "isc": "Zoe",
    "legacy_isc": "Zoe",
    "name": "Zoe",
    "ava": "1",
    "spec": [],
    "profiles": [
      {
        "id": 1,
        "isc": "Zoe",
        "type": "LI",
        "classification": "Character",
        "imp": "",
        "irr": "",
        "cube": "X",
        "mov": "4-4",
        "cc": "13",
        "bs": "11",
        "ph": "10",
        "wip": "15",
        "arm": "1",
        "bts": "0",
        "w": "1",
        "s": "2",
        "spec": [
          "Engineer",
          "Hacking Device: UPGRADE: Stop!"
        ],
        "bsw": [],
        "ccw": [],
        "independent": {
          "cost": "28",
          "swc": "0"
        }
      },
      {
        "id": 2,
        "isc": "Π-Well",
        "name": "Π-Well",
        "type": "REM",
        "imp": "",
        "irr": "",
        "cube": "R",
        "hackable": "X",
        "mov": "6-4",
        "cc": "8",
        "bs": "11",
        "ph": "10",
        "wip": "13",
        "arm": "0",
        "bts": "3",
        "w": "1",
        "s": "2",
        "spec": [
          "Forward Observer",
          "G: Remote Presence",
          "ODD: Optical Disruptor",
          "Repeater",
          "Sat-Lock",
          "Sensor"
        ],
        "bsw": [
          "Combi Rifle"
        ],
        "ccw": [
          "Electric Pulse"
        ],
        "independent": {
          "cost": "19",
          "swc": "0"
        }
      }
    ],
    "childs": [
      {
        "id": 1,
        "name": "Combi",
        "legacy_code": "Default",
        "cost": "47",
        "swc": "0",
        "spec": [],
        "bsw": [
          "Combi Rifle"
        ],
        "ccw": [
          "D-Charges",
          "Knife",
          "Pistol"
        ]
      }
    ]
  },
  {
    "id": 5025,
    "army": "Nomads",
    "isc": "Bran do Castro, Triple Zero",
    "legacy_isc": "Bran do Castro, Triple Zero",
    "name": "Bran",
    "type": "SK",
    "classification": "Character",
    "imp": "",
    "irr": "",
    "cube": "",
    "mov": "4-4",
    "cc": "22",
    "bs": "11",
    "ph": "13",
    "wip": "13",
    "arm": "1",
    "bts": "0",
    "w": "1",
    "s": "2",
    "ava": "1",
    "spec": [
      "Climbing Plus",
      "Super-Jump",
      "Martial Arts L3",
      "CH: Camouflage",
      "Superior Infiltration",
      "Multiterrain"
    ],
    "childs": [
      {
        "id": 1,
        "name": "Combi",
        "legacy_code": "Default",
        "cost": "37",
        "swc": "0",
        "spec": [
          "Specialist Operative"
        ],
        "bsw": [
          "Combi Rifle",
          "E/Mitter"
        ],
        "ccw": [
          "Pistol",
          "DA CCW"
        ]
      },
      {
        "id": 2,
        "name": "Boarding Shotgun",
        "cost": "33",
        "swc": "0",
        "spec": [],
        "bsw": [
          "Boarding Shotgun"
        ],
        "ccw": [
          "Pistol",
          "DA CCW"
        ]
      }
    ]
  },
  {
    "id": 5026,
    "army": "Nomads",
    "isc": "Iguana Squadron",
    "legacy_isc": "Iguana Squadron",
    "name": "Iguana",
    "ava": "1",
    "spec": [],
    "profiles": [
      {
        "id": 1,
        "name": "Iguana Squadron",
        "type": "TAG",
        "classification": "Mechanized",
        "imp": "",
        "irr": "",
        "cube": "X",
        "hackable": "X",
        "mov": "6-4",
        "cc": "16",
        "bs": "14",
        "ph": "16",
        "wip": "13",
        "arm": "6",
        "bts": "6",
        "w": "2",
        "s": "7",
        "spec": [
          "ECM",
          "ED: Ejection System",
          "Manned",
          "Repeater"
        ],
        "bsw": [
          "Heavy Flamethrower"
        ],
        "ccw": []
      },
      {
        "id": 2,
        "name": "Operator",
        "type": "HI",
        "cube": "X",
        "hackable": "X",
        "mov": "4-4",
        "cc": "14",
        "bs": "12",
        "ph": "12",
        "wip": "13",
        "arm": "3",
        "bts": "0",
        "w": "2",
        "s": "2",
        "ava": " ",
        "spec": [
          "Operator"
        ],
        "bsw": [
          "HMG"
        ],
        "ccw": [
          "Knife",
          "Pistol"
        ]
      }
    ],
    "childs": [
      {
        "id": 1,
        "name": "HMG",
        "legacy_code": "Default",
        "cost": "71",
        "swc": "2",
        "spec": [],
        "bsw": [
          "HMG"
        ],
        "ccw": []
      }
    ]
  },
  {
    "id": 5027,
    "army": "Nomads",
    "isc": "Lunokhod Sputniks",
    "legacy_isc": "Lunokhod Sputniks",
    "name": "Lunokhod",
    "ava": "2",
    "spec": [],
    "profiles": [
      {
        "id": 1,
        "name": "Lunokhod Sputniks",
        "type": "REM",
        "classification": "Support",
        "imp": "",
        "irr": "",
        "cube": "",
        "hackable": "X",
        "mov": "6-4",
        "cc": "7",
        "bs": "12",
        "ph": "10",
        "wip": "13",
        "arm": "3",
        "bts": "6",
        "w": "1",
        "s": "4",
        "spec": [
          "Climbing Plus",
          "G: Remote Presence",
          "Minesweeper",
          "Repeater"
        ],
        "bsw": [],
        "ccw": []
      },
      {
        "id": 2,
        "name": "CrazyKoala",
        "type": " ",
        "classification": "",
        "hackable": "",
        "mov": "6-4",
        "cc": " ",
        "bs": " ",
        "ph": " ",
        "wip": " ",
        "arm": "0",
        "bts": "0",
        "w": "1 ",
        "s": "1",
        "ava": " ",
        "spec": [
          "Perimeter"
        ],
        "bsw": [],
        "ccw": []
      }
    ],
    "childs": [
      {
        "id": 1,
        "name": "HFT",
        "legacy_code": "Default",
        "cost": "25",
        "swc": "0",
        "spec": [],
        "bsw": [
          "Heavy Shotgun",
          "Heavy Flamethrower",
          "D-Charges",
          "CrazyKoalas"
        ],
        "ccw": [
          "Electric Pulse"
        ]
      },
      {
        "id": 2,
        "name": "Akrylat-Kanone",
        "legacy_code": "Akrylat-Kanone",
        "cost": "24",
        "swc": "0",
        "spec": [],
        "bsw": [
          "Heavy Shotgun",
          "Akrylat-Kanone",
          "D-Charges",
          "CrazyKoalas"
        ],
        "ccw": [
          "Electric Pulse"
        ]
      }
    ]
  },
  {
    "id": 5028,
    "army": "Nomads",
    "isc": "Moderators from Bakunin",
    "legacy_isc": "Moderators from Bakunin",
    "name": "Moderator",
    "type": "LI",
    "classification": "Garrison",
    "imp": "",
    "irr": "",
    "cube": "X",
    "mov": "4-4",
    "cc": "13",
    "bs": "10",
    "ph": "10",
    "wip": "12",
    "arm": "0",
    "bts": "3",
    "w": "1",
    "s": "2",
    "ava": "T",
    "spec": [
      "Shock Immunity"
    ],
    "childs": [
      {
        "id": 1,
        "name": "Combi",
        "legacy_code": "Default",
        "cost": "9",
        "swc": "0",
        "spec": [],
        "bsw": [
          "Combi Rifle"
        ],
        "ccw": [
          "Electric Pulse",
          "Pistol"
        ]
      },
      {
        "id": 2,
        "name": "Lieutenant",
        "legacy_code": "Lieutenant",
        "cost": "9",
        "swc": "2",
        "spec": [
          "Lieutenant"
        ],
        "bsw": [
          "Combi Rifle"
        ],
        "ccw": [
          "Electric Pulse",
          "Pistol"
        ]
      },
      {
        "id": 3,
        "name": "Paramedic",
        "legacy_code": "Paramedic",
        "cost": "11",
        "swc": "0",
        "spec": [
          "Paramedic",
          "MediKit"
        ],
        "bsw": [
          "Combi Rifle"
        ],
        "ccw": [
          "Electric Pulse",
          "Pistol"
        ]
      },
      {
        "id": 4,
        "name": "Hacker",
        "legacy_code": "Hacker",
        "cost": "17",
        "swc": "0.5",
        "spec": [
          "Hacking Device"
        ],
        "bsw": [
          "Combi Rifle"
        ],
        "ccw": [
          "Electric Pulse",
          "Pistol"
        ]
      },
      {
        "id": 5,
        "name": "Pitcher",
        "legacy_code": "Marker",
        "cost": "10",
        "swc": "0.5",
        "spec": [],
        "bsw": [
          "Pitcher",
          "Combi Rifle"
        ],
        "ccw": [
          "Electric Pulse",
          "Pistol"
        ]
      },
      {
        "id": 6,
        "name": "MULTI Sniper Rifle",
        "legacy_code": "MULTI Sniper Rifle",
        "cost": "17",
        "swc": "1.5",
        "spec": [],
        "bsw": [
          "MULTI Sniper Rifle"
        ],
        "ccw": [
          "Electric Pulse",
          "Pistol"
        ]
      },
      {
        "id": 7,
        "name": "Grenadier",
        "legacy_code": "Grenadier",
        "cost": "13",
        "swc": "0.5",
        "spec": [],
        "bsw": [
          "Light Grenade Launcher",
          "Combi Rifle"
        ],
        "ccw": [
          "Electric Pulse",
          "Pistol"
        ]
      },
      {
        "id": 8,
        "name": "Spitfire",
        "legacy_code": "Spitfire",
        "cost": "15",
        "swc": "0.5",
        "spec": [],
        "bsw": [
          "Spitfire"
        ],
        "ccw": [
          "Electric Pulse",
          "Pistol"
        ]
      }
    ]
  },
  {
    "id": 5029,
    "army": "Nomads",
    "isc": "Moran, Maasai Hunter",
    "legacy_isc": "Moran, Maasai Hunter",
    "name": "Moran",
    "ava": "2",
    "spec": [],
    "profiles": [
      {
        "id": 1,
        "type": "SK",
        "classification": "Specially Trained",
        "imp": "",
        "irr": "",
        "cube": "X",
        "mov": "4-4",
        "cc": "14",
        "bs": "12",
        "ph": "11",
        "wip": "13",
        "arm": "0",
        "bts": "0",
        "w": "1",
        "s": "2",
        "spec": [
          "CH: Mimetism",
          "Infiltration",
          "Repeater",
          "Multiterrain",
          "V: Courage"
        ],
        "bsw": [],
        "ccw": []
      },
      {
        "id": 2,
        "name": "CrazyKoala",
        "type": " ",
        "classification": "",
        "hackable": "",
        "mov": "6-4 ",
        "cc": " ",
        "bs": " ",
        "ph": " ",
        "wip": " ",
        "arm": "0",
        "bts": "0",
        "w": "1 ",
        "s": "1",
        "ava": " ",
        "spec": [
          "Perimeter"
        ],
        "bsw": [],
        "ccw": []
      }
    ],
    "childs": [
      {
        "id": 1,
        "name": "Combi",
        "legacy_code": "Default",
        "cost": "21",
        "swc": "0.5",
        "spec": [],
        "bsw": [
          "CrazyKoalas",
          "Combi Rifle"
        ],
        "ccw": [
          "Knife",
          "Pistol"
        ]
      },
      {
        "id": 2,
        "name": "Observer",
        "legacy_code": "Observer",
        "cost": "22",
        "swc": "0.5",
        "spec": [
          "Forward Observer"
        ],
        "bsw": [
          "CrazyKoalas",
          "Combi Rifle"
        ],
        "ccw": [
          "Knife",
          "Pistol"
        ]
      },
      {
        "id": 3,
        "name": "Boarding Shotgun",
        "legacy_code": "Boarding Shotgun",
        "cost": "20",
        "swc": "0.5",
        "spec": [],
        "bsw": [
          "CrazyKoalas",
          "Boarding Shotgun"
        ],
        "ccw": [
          "Knife",
          "Pistol"
        ]
      }
    ]
  },
  {
    "id": 5030,
    "army": "Nomads",
    "isc": "Prowlers",
    "legacy_isc": "Prowlers",
    "name": "Prowler",
    "type": "MI",
    "classification": "Veteran",
    "imp": "",
    "irr": "",
    "cube": "X",
    "mov": "4-2",
    "cc": "14",
    "bs": "12",
    "ph": "12",
    "wip": "14",
    "arm": "2",
    "bts": "0",
    "w": "1",
    "s": "2",
    "ava": "2",
    "spec": [
      "CH: Camouflage",
      "Infiltration",
      "Multiterrain",
      "Bioimmunity"
    ],
    "childs": [
      {
        "id": 1,
        "name": "Combi",
        "legacy_code": "Default",
        "cost": "32",
        "swc": "0",
        "spec": [],
        "bsw": [
          "Combi Rifle",
          "Light Flamethrower",
          "Adhesive Launcher"
        ],
        "ccw": [
          "CCW",
          "Pistol"
        ]
      },
      {
        "id": 2,
        "name": "Boarding Shotgun",
        "legacy_code": "Boarding Shotgun",
        "cost": "31",
        "swc": "0",
        "spec": [],
        "bsw": [
          "Boarding Shotgun",
          "Grenades"
        ],
        "ccw": [
          "CCW",
          "Pistol",
          "D-Charges"
        ]
      },
      {
        "id": 3,
        "name": "Spitfire",
        "legacy_code": "Spitfire",
        "cost": "36",
        "swc": "2",
        "spec": [],
        "bsw": [
          "Spitfire"
        ],
        "ccw": [
          "CCW",
          "Pistol",
          "D-Charges"
        ]
      },
      {
        "id": 4,
        "name": "Specialist",
        "cost": "33",
        "swc": "0.5",
        "spec": [
          "Specialist Operative"
        ],
        "bsw": [
          "Combi Rifle",
          "Light Flamethrower",
          "Adhesive Launcher"
        ],
        "ccw": [
          "CCW",
          "Pistol"
        ]
      }
    ]
  },
  {
    "id": 5031,
    "army": "Nomads",
    "isc": "Reverend Custodiers",
    "legacy_isc": "Reverend Custodiers",
    "name": "Reverend Custodier",
    "type": "MI",
    "classification": "Elite",
    "imp": "",
    "irr": "",
    "cube": "X",
    "mov": "4-2",
    "cc": "14",
    "bs": "12",
    "ph": "11",
    "wip": "14",
    "arm": "3",
    "bts": "3",
    "w": "1",
    "s": "2",
    "ava": "2",
    "spec": [
      "ODD: Optical Disruptor",
      "Religious Troop",
      "Fireteam: Haris"
    ],
    "childs": [
      {
        "id": 1,
        "name": "Pitcher",
        "legacy_code": "Default",
        "cost": "34",
        "swc": "0.5",
        "spec": [
          "Hacking Device Plus"
        ],
        "bsw": [
          "Combi Rifle",
          "Pitcher"
        ],
        "ccw": [
          "Knife",
          "Pistol"
        ]
      },
      {
        "id": 2,
        "name": "Lieutenant",
        "legacy_code": "Lieutenant",
        "cost": "34",
        "swc": "0.5",
        "spec": [
          "Hacking Device Plus",
          "Lieutenant"
        ],
        "bsw": [
          "Combi Rifle",
          "Pitcher"
        ],
        "ccw": [
          "Knife",
          "Pistol"
        ]
      },
      {
        "id": 3,
        "name": "Combi",
        "legacy_code": "Combi",
        "cost": "33",
        "swc": "0.5",
        "spec": [
          "Hacking Device Plus"
        ],
        "bsw": [
          "Combi Rifle"
        ],
        "ccw": [
          "Knife",
          "Pistol"
        ]
      },
      {
        "id": 4,
        "name": "Boarding Shotgun",
        "legacy_code": "Boarding Shotgun",
        "cost": "32",
        "swc": "0.5",
        "spec": [
          "Hacking Device Plus"
        ],
        "bsw": [
          "Boarding Shotgun"
        ],
        "ccw": [
          "Knife",
          "Pistol"
        ]
      },
      {
        "id": 5,
        "name": "AHD Boarding Shotgun",
        "cost": "30",
        "swc": "0.5",
        "spec": [
          "Assault Hacking Device: UPGRADE: Icebreaker"
        ],
        "bsw": [
          "Boarding Shotgun"
        ],
        "ccw": [
          "Knife",
          "Pistol"
        ]
      },
      {
        "id": 6,
        "name": "AHD Pitcher",
        "cost": "32",
        "swc": "0.5",
        "spec": [
          "Assault Hacking Device: UPGRADE: Icebreaker"
        ],
        "bsw": [
          "Combi Rifle",
          "Pitcher"
        ],
        "ccw": [
          "Knife",
          "Pistol"
        ]
      }
    ]
  },
  {
    "id": 5032,
    "army": "Nomads",
    "isc": "Salyut Zonds",
    "legacy_isc": "Salyut Zonds",
    "name": "Salyut",
    "type": "REM",
    "classification": "Support",
    "imp": "",
    "irr": "",
    "cube": "",
    "hackable": "X",
    "mov": "4-4",
    "cc": "8",
    "bs": "11",
    "ph": "10",
    "wip": "13",
    "arm": "2",
    "bts": "3",
    "w": "1",
    "s": "4",
    "ava": "2",
    "spec": [
      "Baggage",
      "G: Remote Presence"
    ],
    "childs": [
      {
        "id": 1,
        "name": "Minesweeper",
        "legacy_code": "Default",
        "cost": "8",
        "swc": "0",
        "spec": [
          "Minesweeper",
          "Repeater"
        ],
        "bsw": [],
        "ccw": [
          "Electric Pulse"
        ]
      },
      {
        "id": 2,
        "name": "Combi",
        "legacy_code": "Rifle",
        "cost": "21",
        "swc": "0",
        "spec": [
          "Total Reaction",
          "Repeater"
        ],
        "bsw": [
          "Combi Rifle"
        ],
        "ccw": [
          "Electric Pulse"
        ]
      },
      {
        "id": 3,
        "name": "EVO",
        "legacy_code": "EVO",
        "cost": "25",
        "swc": "0.5",
        "spec": [
          "EVO Hacking Device"
        ],
        "bsw": [],
        "ccw": [
          "Electric Pulse"
        ]
      }
    ]
  },
  {
    "id": 5033,
    "army": "Nomads",
    "isc": "Sin-Eater Observants",
    "legacy_isc": "Sin-Eater Observants",
    "name": "Sin-Eater",
    "type": "MI",
    "classification": "Veteran",
    "imp": "",
    "irr": "",
    "cube": "X",
    "mov": "4-2",
    "cc": "14",
    "bs": "13",
    "ph": "11",
    "wip": "13",
    "arm": "3",
    "bts": "0",
    "w": "1",
    "s": "2",
    "ava": "1",
    "spec": [
      "CH: Mimetism",
      "Neurocinetics",
      "Religious Troop"
    ],
    "childs": [
      {
        "id": 1,
        "name": "HMG",
        "legacy_code": "Default",
        "cost": "33",
        "swc": "2",
        "spec": [],
        "bsw": [
          "HMG"
        ],
        "ccw": [
          "CCW",
          "Pistol"
        ]
      },
      {
        "id": 2,
        "name": "Spitfire",
        "legacy_code": "Spitfire",
        "cost": "31",
        "swc": "1.5",
        "spec": [],
        "bsw": [
          "Spitfire"
        ],
        "ccw": [
          "CCW",
          "Pistol"
        ]
      },
      {
        "id": 3,
        "name": "MULTI Sniper Rifle",
        "legacy_code": "MULTI Sniper Rifle",
        "cost": "33",
        "swc": "1.5",
        "spec": [],
        "bsw": [
          "MULTI Sniper Rifle"
        ],
        "ccw": [
          "CCW",
          "Pistol"
        ]
      },
      {
        "id": 4,
        "name": "Mk12",
        "legacy_code": "Mk12",
        "cost": "30",
        "swc": "0",
        "spec": [],
        "bsw": [
          "Mk12"
        ],
        "ccw": [
          "CCW",
          "Pistol"
        ]
      }
    ]
  },
  {
    "id": 5034,
    "army": "Nomads",
    "isc": "Tomcats",
    "legacy_isc": "Tomcats",
    "name": "Tomcat",
    "ava": "2",
    "spec": [],
    "profiles": [
      {
        "id": 1,
        "isc": "Tomcats",
        "name": "Tomcat",
        "type": "LI",
        "classification": "Specially Trained",
        "imp": "",
        "irr": "",
        "cube": "X",
        "mov": "4-4",
        "cc": "13",
        "bs": "12",
        "ph": "11",
        "wip": "13",
        "arm": "1",
        "bts": "0",
        "w": "1",
        "s": "2",
        "spec": [
          "AD: Airborne Infiltration / Zero-G",
          "Climbing Plus"
        ],
        "bsw": [],
        "ccw": []
      },
      {
        "id": 2,
        "isc": "Zondcats",
        "name": "Zondcat",
        "optionSpecific": "X",
        "type": "REM",
        "imp": "",
        "irr": "",
        "cube": "",
        "hackable": "X",
        "mov": "6-4",
        "cc": "8",
        "bs": "8",
        "ph": "10",
        "wip": "13",
        "arm": "0",
        "bts": "3",
        "w": "1",
        "s": "1",
        "spec": [
          "AD: Airborne Infiltration / Zero-G",
          "CH: Mimetism",
          "G: Servant"
        ],
        "bsw": [],
        "ccw": [
          "Electric Pulse"
        ],
        "independent": {
          "cost": "4",
          "swc": "0"
        }
      }
    ],
    "childs": [
      {
        "id": 1,
        "name": "Combi",
        "legacy_code": "Default",
        "cost": "19",
        "swc": "0.5",
        "spec": [],
        "bsw": [
          "Combi Rifle",
          "D.E.P.",
          "Light Flamethrower"
        ],
        "ccw": [
          "Knife",
          "Pistol"
        ]
      },
      {
        "id": 2,
        "name": "Engineer+Zondcat",
        "legacy_code": "Engineer+Zondcat",
        "cost": "26",
        "swc": "0",
        "profile": "1",
        "spec": [
          "Engineer"
        ],
        "bsw": [
          "Combi Rifle",
          "Light Flamethrower"
        ],
        "ccw": [
          "Knife",
          "Pistol",
          "D-Charges"
        ],
        "independent": {
          "cost": "22",
          "swc": "0"
        }
      },
      {
        "id": 3,
        "name": "Doctor+Zondcat",
        "legacy_code": "Doctor+Zondcat",
        "cost": "26",
        "swc": "0",
        "profile": "1",
        "spec": [
          "Doctor",
          "MediKit"
        ],
        "bsw": [
          "Combi Rifle",
          "Light Flamethrower"
        ],
        "ccw": [
          "Knife",
          "Pistol"
        ],
        "independent": {
          "cost": "22",
          "swc": "0"
        }
      },
      {
        "id": 4,
        "name": "Engineer",
        "legacy_code": "Engineer",
        "cost": "22",
        "swc": "0",
        "spec": [
          "Engineer"
        ],
        "bsw": [
          "Combi Rifle",
          "Light Flamethrower"
        ],
        "ccw": [
          "Knife",
          "Pistol",
          "D-Charges"
        ]
      },
      {
        "id": 5,
        "name": "Doctor",
        "legacy_code": "Doctor",
        "cost": "22",
        "swc": "0",
        "spec": [
          "Doctor",
          "MediKit"
        ],
        "bsw": [
          "Combi Rifle",
          "Light Flamethrower"
        ],
        "ccw": [
          "Knife",
          "Pistol"
        ]
      },
      {
        "id": 6,
        "name": "Deployable Repeater",
        "legacy_code": "Deplo Repeater",
        "cost": "19",
        "swc": "0.5",
        "spec": [
          "Deployable Repeater"
        ],
        "bsw": [
          "Combi Rifle",
          "Light Flamethrower"
        ],
        "ccw": [
          "Knife",
          "Pistol"
        ]
      },
      {
        "id": 7,
        "name": "E/Mitter",
        "legacy_code": "E/Mitter",
        "cost": "20",
        "swc": "0",
        "spec": [],
        "bsw": [
          "Combi Rifle",
          "E/Mitter",
          "Antipersonnel Mines"
        ],
        "ccw": [
          "Knife",
          "Pistol"
        ]
      }
    ]
  },
  {
    "id": 5035,
    "army": "Nomads",
    "isc": "Tsyklon Sputniks",
    "legacy_isc": "Tsyklon Sputniks",
    "name": "Tsyklon",
    "type": "REM",
    "classification": "Support",
    "imp": "",
    "irr": "",
    "cube": "",
    "hackable": "X",
    "mov": "6-4",
    "cc": "7",
    "bs": "12",
    "ph": "10",
    "wip": "13",
    "arm": "3",
    "bts": "6",
    "w": "1",
    "s": "4",
    "ava": "2",
    "spec": [
      "360° Visor",
      "X Visor",
      "Climbing Plus",
      "G: Remote Presence",
      "Repeater"
    ],
    "childs": [
      {
        "id": 1,
        "name": "Spitfire",
        "legacy_code": "Default",
        "cost": "31",
        "swc": "1",
        "spec": [],
        "bsw": [
          "Spitfire",
          "Pitcher"
        ],
        "ccw": [
          "Electric Pulse"
        ]
      },
      {
        "id": 2,
        "name": "Feuerbach",
        "legacy_code": "Feuerbach",
        "cost": "34",
        "swc": "1",
        "spec": [],
        "bsw": [
          "Feuerbach",
          "Pitcher"
        ],
        "ccw": [
          "Electric Pulse"
        ]
      }
    ]
  },
  {
    "id": 5036,
    "army": "Nomads",
    "isc": "Zondbots",
    "legacy_isc": "Zondbots",
    "name": "Zondbot",
    "type": "REM",
    "classification": "Support",
    "imp": "",
    "irr": "",
    "cube": "",
    "hackable": "X",
    "mov": "6-4",
    "cc": "8",
    "bs": "8",
    "ph": "10",
    "wip": "13",
    "arm": "0",
    "bts": "3",
    "w": "1",
    "s": "1",
    "ava": "4",
    "spec": [
      "CH: Mimetism",
      "G: Servant"
    ],
    "childs": [
      {
        "id": 1,
        "name": "Servant",
        "legacy_code": "Default",
        "cost": "3",
        "swc": "0",
        "spec": [],
        "bsw": [],
        "ccw": [
          "Electric Pulse"
        ]
      }
    ]
  },
  {
    "id": 5037,
    "army": "Nomads",
    "isc": "Bakunin Überfallkommando: Chimera",
    "legacy_isc": "Bakunin Überfallkommando : Chimera",
    "name": "Chimera",
    "type": "WB",
    "classification": "Support",
    "imp": "X",
    "irr": "X",
    "cube": "X",
    "mov": "6-4",
    "cc": "21",
    "bs": "11",
    "ph": "13",
    "wip": "12",
    "arm": "1",
    "bts": "0",
    "w": "1",
    "wtype": "str",
    "s": "2",
    "ava": "1",
    "spec": [
      "Climbing Plus",
      "Kinematika L1",
      "I-Kohl L1",
      "Natural Born Warrior",
      "Total Immunity"
    ],
    "childs": [
      {
        "id": 1,
        "name": "Combi",
        "legacy_code": "Default",
        "cost": "20",
        "swc": "0",
        "spec": [],
        "bsw": [
          "Combi Rifle",
          "Nanopulser",
          "Eclipse Grenades"
        ],
        "ccw": [
          "Viral CCW"
        ]
      }
    ]
  },
  {
    "id": 5038,
    "army": "Nomads",
    "isc": "Bakunin Überfallkommando: Pupniks",
    "legacy_isc": "Bakunin Überfallkommando : Pupniks",
    "name": "Pupnik",
    "image": 5037,
    "type": "WB",
    "classification": "Support",
    "imp": "X",
    "irr": "X",
    "cube": "",
    "mov": "6-4",
    "cc": "19",
    "bs": "4",
    "ph": "13",
    "wip": "10",
    "arm": "0",
    "bts": "0",
    "w": "1",
    "s": "2",
    "ava": "3",
    "spec": [
      "G: Synchronized",
      "Total Immunity",
      "Kinematika L1",
      "Climbing Plus",
      "Hyper-Dynamics L2"
    ],
    "childs": [
      {
        "id": 1,
        "name": "DA CCW",
        "legacy_code": "Default",
        "cost": "1",
        "swc": "0",
        "spec": [],
        "bsw": [],
        "ccw": [
          "DA CCW"
        ]
      }
    ]
  },
  {
    "id": 5039,
    "army": "Nomads",
    "isc": "Reverend Superior Cassandra Kusanagi",
    "legacy_isc": "Reverend Superior CASSANDRA KUSANAGI",
    "name": "Kusanagi",
    "image": 5006,
    "type": "MI",
    "classification": "Character",
    "imp": "",
    "irr": "",
    "cube": "X",
    "mov": "4-2",
    "cc": "16",
    "bs": "14",
    "ph": "13",
    "wip": "14",
    "arm": "3",
    "bts": "0",
    "w": "1",
    "s": "2",
    "ava": "1",
    "spec": [
      "Multiterrain",
      "ODD: Optical Disruptor",
      "Religious Troop",
      "V: No Wound Incapacitation",
      "Specialist Operative"
    ],
    "childs": [
      {
        "id": 1,
        "name": "Lieutenant",
        "legacy_code": "Lieutenant",
        "cost": "44",
        "swc": "-1",
        "spec": [
          "Lieutenant"
        ],
        "bsw": [
          "MULTI Rifle",
          "Light Flamethrower",
          "E/M Grenades"
        ],
        "ccw": [
          "Pistol",
          "Shock CCW"
        ]
      },
      {
        "id": 2,
        "name": "MULTI",
        "legacy_code": "Default",
        "cost": "44",
        "swc": "0",
        "spec": [],
        "bsw": [
          "MULTI Rifle",
          "Light Flamethrower",
          "E/M Grenades"
        ],
        "ccw": [
          "Pistol",
          "Shock CCW"
        ]
      },
      {
        "id": 3,
        "name": "Spitfire Lieutenant",
        "cost": "43",
        "swc": "2",
        "spec": [
          "Lieutenant"
        ],
        "bsw": [
          "Spitfire"
        ],
        "ccw": [
          "Pistol",
          "Shock CCW"
        ]
      },
      {
        "id": 4,
        "name": "Spitfire",
        "cost": "43",
        "swc": "2",
        "spec": [],
        "bsw": [
          "Spitfire"
        ],
        "ccw": [
          "Pistol",
          "Shock CCW"
        ]
      }
    ]
  },
  {
    "id": 5040,
    "army": "Nomads",
    "isc": "Carlota Kowalsky, Tomcats Sergeant",
    "legacy_isc": "Carlota Kowalsky, Tomcats Sergeant",
    "name": "Carlota Kowalsky",
    "image": 5034,
    "ava": "1",
    "spec": [],
    "profiles": [
      {
        "id": 1,
        "isc": "Carlota Kowalsky, Tomcats Sergeant",
        "name": "Carlota Kowalsky",
        "type": "LI",
        "classification": "Character",
        "imp": "",
        "irr": "",
        "cube": "",
        "mov": "4-4",
        "cc": "14",
        "bs": "13",
        "ph": "11",
        "wip": "14",
        "arm": "2",
        "bts": "0",
        "w": "1",
        "s": "2",
        "spec": [
          "AD: Airborne Infiltration / Zero-G",
          "Climbing Plus",
          "Engineer"
        ],
        "bsw": [],
        "ccw": []
      },
      {
        "id": 2,
        "isc": "Moriarty",
        "name": "Moriarty",
        "optionSpecific": "X",
        "type": "REM",
        "imp": "",
        "irr": "",
        "cube": "",
        "hackable": "X",
        "mov": "6-4",
        "cc": "8",
        "bs": "8",
        "ph": "10",
        "wip": "13",
        "arm": "0",
        "bts": "6",
        "w": "1",
        "s": "1",
        "ava": " ",
        "spec": [
          "CH: Mimetism",
          "AD: Airborne Infiltration / Zero-G",
          "G: Servant"
        ],
        "bsw": [],
        "ccw": [
          "Electric Pulse"
        ],
        "independent": {
          "cost": "4",
          "swc": "0"
        }
      }
    ],
    "childs": [
      {
        "id": 1,
        "name": "Engineer+Moriarty",
        "legacy_code": "Engineer+Moriarty",
        "cost": "34",
        "swc": "0",
        "profile": "1",
        "spec": [],
        "bsw": [
          "Combi Rifle",
          "Light Flamethrower",
          "Adhesive Launcher"
        ],
        "ccw": [
          "D-Charges",
          "Pistol",
          "Knife"
        ]
      },
      {
        "id": 2,
        "name": "Engineer",
        "legacy_code": "Default",
        "cost": "30",
        "swc": "0",
        "spec": [],
        "bsw": [
          "Combi Rifle",
          "Light Flamethrower",
          "Adhesive Launcher"
        ],
        "ccw": [
          "D-Charges",
          "Pistol",
          "Knife"
        ]
      }
    ]
  },
  {
    "id": 5041,
    "army": "Nomads",
    "isc": "Riot Grrls",
    "legacy_isc": "Riot Grrls",
    "name": "Riot Grrl",
    "type": "HI",
    "classification": "Specially Trained",
    "imp": "F",
    "irr": "",
    "cube": "X",
    "hackable": "X",
    "mov": "4-4",
    "cc": "15",
    "bs": "13",
    "ph": "13",
    "wip": "13",
    "arm": "3",
    "bts": "3",
    "w": "2",
    "s": "2",
    "ava": "2",
    "spec": [
      "Multispectral Visor L1",
      "Hyper-Dynamics L1"
    ],
    "childs": [
      {
        "id": 1,
        "name": "Spitfire",
        "legacy_code": "Spitfire",
        "cost": "34",
        "swc": "2",
        "spec": [],
        "bsw": [
          "Spitfire"
        ],
        "ccw": [
          "Pistol",
          "Knife"
        ]
      },
      {
        "id": 2,
        "name": "Multi",
        "legacy_code": "Multi",
        "cost": "32",
        "swc": "0",
        "spec": [],
        "bsw": [
          "MULTI Rifle",
          "Stun Grenades"
        ],
        "ccw": [
          "Pistol",
          "Knife"
        ]
      },
      {
        "id": 3,
        "name": "Boarding Shotgun",
        "legacy_code": "Boarding Shotgun",
        "cost": "27",
        "swc": "0",
        "spec": [],
        "bsw": [
          "Boarding Shotgun",
          "Stun Grenades"
        ],
        "ccw": [
          "Pistol",
          "Knife"
        ]
      },
      {
        "id": 4,
        "name": "Combi",
        "legacy_code": "Default",
        "cost": "29",
        "swc": "0",
        "spec": [],
        "bsw": [
          "Combi Rifle",
          "Blitzen",
          "Stun Grenades"
        ],
        "ccw": [
          "Pistol",
          "Knife"
        ]
      },
      {
        "id": 5,
        "name": "Boarding Shotgun TinBot",
        "cost": "30",
        "swc": "0",
        "spec": [
          "TinBot B (Deflector L2)"
        ],
        "bsw": [
          "Boarding Shotgun",
          "Stun Grenades"
        ],
        "ccw": [
          "Pistol",
          "Knife"
        ]
      },
      {
        "id": 6,
        "name": "Missile",
        "cost": "33",
        "swc": "2",
        "spec": [],
        "bsw": [
          "Missile Launcher"
        ],
        "ccw": [
          "Pistol",
          "Knife"
        ]
      },
      {
        "id": 7,
        "name": "Haris",
        "cost": "30",
        "swc": "0.5",
        "spec": [
          "Fireteam: Haris"
        ],
        "bsw": [
          "Combi Rifle",
          "Blitzen",
          "Stun Grenades"
        ],
        "ccw": [
          "Pistol",
          "Knife"
        ]
      },
      {
        "id": 8,
        "name": "Specialist",
        "cost": "30",
        "swc": "0",
        "spec": [
          "Specialist Operative"
        ],
        "bsw": [
          "Combi Rifle",
          "Blitzen",
          "Stun Grenades"
        ],
        "ccw": [
          "Pistol",
          "Knife"
        ]
      }
    ]
  },
  {
    "id": 5042,
    "army": "Nomads",
    "isc": "Vortex Spec-Ops",
    "legacy_isc": "Vortex Spec-Ops",
    "name": "Vortex",
    "type": "SPEC-OPS",
    "imp": "",
    "irr": "",
    "cube": "",
    "mov": "X-X",
    "cc": "X",
    "bs": "X",
    "ph": "X",
    "wip": "X",
    "arm": "X",
    "bts": "X",
    "w": "X",
    "ava": "1",
    "spec": [
      "Spec-Op"
    ],
    "childs": [
      {
        "id": 1,
        "name": "Spec-Ops",
        "legacy_code": "Default",
        "cost": "0",
        "swc": "0",
        "spec": [],
        "bsw": [],
        "ccw": []
      }
    ]
  },
  {
    "id": 5043,
    "army": "Nomads",
    "isc": "Alguacil Vortex Lupe Balboa",
    "legacy_isc": "Alguacil Vortex Lupe Balboa",
    "name": "Lupe Balboa",
    "image": 5042,
    "type": "LI",
    "classification": "Character",
    "imp": "",
    "irr": "",
    "cube": "X",
    "mov": "4-4",
    "cc": "14",
    "bs": "12",
    "ph": "11",
    "wip": "13",
    "arm": "2",
    "bts": "3",
    "w": "1",
    "s": "2",
    "ava": "1",
    "spec": [
      "CH: Mimetism",
      "Specialist Operative",
      "V: Dogged"
    ],
    "childs": [
      {
        "id": 1,
        "name": "Combi",
        "legacy_code": "Default",
        "cost": "23",
        "swc": "0",
        "spec": [],
        "bsw": [
          "Combi Rifle",
          "Nanopulser",
          "Panzerfaust",
          "Smoke Grenades"
        ],
        "ccw": [
          "Pistol",
          "CCW"
        ]
      }
    ]
  },
  {
    "id": 5044,
    "army": "Nomads",
    "isc": "Wildcats, Polyvalent Tactical Unit",
    "legacy_isc": "Wildcats, Polyvalent Tactical Unit",
    "name": "Wildcat",
    "type": "MI",
    "classification": "Veteran",
    "imp": "",
    "irr": "",
    "cube": "X",
    "mov": "4-2",
    "cc": "14",
    "bs": "13",
    "ph": "11",
    "wip": "13",
    "arm": "2",
    "bts": "6",
    "w": "1",
    "s": "2",
    "ava": "3",
    "spec": [
      "Multiterrain",
      "V: Courage"
    ],
    "childs": [
      {
        "id": 1,
        "name": "Combi",
        "legacy_code": "Default",
        "cost": "19",
        "swc": "0",
        "spec": [],
        "bsw": [
          "Combi Rifle",
          "Light Flamethrower"
        ],
        "ccw": [
          "Knife",
          "D-Charges",
          "Pistol"
        ]
      },
      {
        "id": 2,
        "name": "Boarding Shotgun",
        "legacy_code": "Boarding Shotgun",
        "cost": "17",
        "swc": "0",
        "spec": [
          "Deployable Repeater"
        ],
        "bsw": [
          "Boarding Shotgun",
          "Stun Grenades"
        ],
        "ccw": [
          "Knife",
          "Pistol"
        ]
      },
      {
        "id": 3,
        "name": "Heavy Rocket Launcher",
        "legacy_code": "Heavy Rocket Launcher",
        "cost": "20",
        "swc": "2",
        "spec": [],
        "bsw": [
          "Heavy Rocket Launcher"
        ],
        "ccw": [
          "Knife",
          "Assault Pistol"
        ]
      },
      {
        "id": 4,
        "name": "Spitfire",
        "legacy_code": "Spitfire",
        "cost": "24",
        "swc": "1.5",
        "spec": [],
        "bsw": [
          "Spitfire"
        ],
        "ccw": [
          "Knife",
          "Pistol"
        ]
      },
      {
        "id": 5,
        "name": "Hacker",
        "legacy_code": "Hacker",
        "cost": "25",
        "swc": "0.5",
        "spec": [
          "Assault Hacking Device"
        ],
        "bsw": [
          "Combi Rifle",
          "Light Flamethrower"
        ],
        "ccw": [
          "Knife",
          "D-Charges",
          "Pistol"
        ]
      },
      {
        "id": 6,
        "name": "Engineer",
        "legacy_code": "Engineer",
        "cost": "23",
        "swc": "0",
        "spec": [
          "Engineer"
        ],
        "bsw": [
          "Combi Rifle",
          "Light Flamethrower"
        ],
        "ccw": [
          "Knife",
          "D-Charges",
          "Pistol"
        ]
      },
      {
        "id": 7,
        "name": "Lieutenant ",
        "legacy_code": "Lieutenant ",
        "cost": "19",
        "swc": "0",
        "spec": [
          "Lieutenant"
        ],
        "bsw": [
          "Combi Rifle",
          "Light Flamethrower"
        ],
        "ccw": [
          "Knife",
          "D-Charges",
          "Pistol"
        ]
      },
      {
        "id": 8,
        "name": "Number 2",
        "legacy_code": "N2",
        "cost": "20",
        "swc": "0",
        "spec": [
          "Number 2"
        ],
        "bsw": [
          "Combi Rifle",
          "Light Flamethrower"
        ],
        "ccw": [
          "Knife",
          "D-Charges",
          "Pistol"
        ]
      },
      {
        "id": 9,
        "name": "Haris",
        "cost": "20",
        "swc": "0.5",
        "spec": [
          "Fireteam: Haris"
        ],
        "bsw": [
          "Combi Rifle",
          "Light Flamethrower"
        ],
        "ccw": [
          "Knife",
          "D-Charges",
          "Pistol"
        ]
      }
    ]
  },
  {
    "id": 5045,
    "army": "Nomads",
    "isc": "Gecko",
    "legacy_isc": "Gecko",
    "name": "Gecko",
    "ava": "2",
    "spec": [],
    "profiles": [
      {
        "id": 1,
        "type": "TAG",
        "classification": "Mechanized",
        "imp": "",
        "irr": "",
        "cube": "X",
        "hackable": "X",
        "mov": "4-4",
        "cc": "15",
        "bs": "13",
        "ph": "15",
        "wip": "13",
        "arm": "5",
        "bts": "6",
        "w": "3",
        "s": "6",
        "ava": "2",
        "spec": [
          "ECM",
          "Fireteam: Duo",
          "Zero-G",
          "Manned"
        ],
        "bsw": [],
        "ccw": []
      },
      {
        "id": 2,
        "name": "Pilot",
        "type": "LI",
        "imp": "",
        "irr": "",
        "cube": "X",
        "hackable": "",
        "mov": "4-4",
        "cc": "13",
        "bs": "11",
        "ph": "10",
        "wip": "13",
        "arm": "0",
        "bts": "0",
        "w": "1",
        "s": "2",
        "ava": " ",
        "spec": [
          "Pilot",
          "Zero-G",
          "Specialist Operative"
        ],
        "bsw": [],
        "ccw": [
          "Knife",
          "Assault Pistol (2)"
        ]
      }
    ],
    "childs": [
      {
        "id": 1,
        "name": "Combi",
        "legacy_code": "Default",
        "cost": "53",
        "swc": "0",
        "spec": [],
        "bsw": [
          "Chain-Colt",
          "Combi Rifle (2)",
          "Panzerfaust"
        ],
        "ccw": []
      },
      {
        "id": 2,
        "name": "Mk12",
        "legacy_code": "Mk12",
        "cost": "54",
        "swc": "0.5",
        "spec": [],
        "bsw": [
          "Chain-Colt",
          "Mk12",
          "Blitzen"
        ],
        "ccw": []
      }
    ]
  },
  {
    "id": 5046,
    "army": "Nomads",
    "isc": "Taskmasters, Bakunin SWAST Team",
    "name": "Taskmaster",
    "ava": "2",
    "spec": [],
    "profiles": [
      {
        "id": 1,
        "type": "HI",
        "classification": "Veteran",
        "imp": "",
        "irr": "",
        "cube": "X",
        "hackable": "X",
        "mov": "4-4",
        "cc": "19",
        "bs": "13",
        "ph": "14",
        "wip": "13",
        "arm": "5",
        "bts": "6",
        "w": "2",
        "s": "5",
        "spec": [
          "Fireteam: Duo",
          "Free Agent",
          "Kinematika L1",
          "Martial Arts L1"
        ],
        "bsw": [],
        "ccw": []
      },
      {
        "id": 2,
        "name": "CrazyKoala",
        "optionSpecific": "X",
        "type": " ",
        "classification": "",
        "hackable": "",
        "mov": "6-4 ",
        "cc": " ",
        "bs": " ",
        "ph": " ",
        "wip": " ",
        "arm": "0",
        "bts": "0",
        "w": "1 ",
        "s": "1",
        "ava": " ",
        "spec": [
          "Perimeter"
        ],
        "bsw": [],
        "ccw": []
      }
    ],
    "childs": [
      {
        "id": 1,
        "name": "HMG",
        "cost": "49",
        "swc": "2",
        "spec": [],
        "bsw": [
          "HMG"
        ],
        "ccw": [
          "Heavy Pistol",
          "DA CCW"
        ]
      },
      {
        "id": 2,
        "name": "Boarding Shotgun",
        "cost": "43",
        "swc": "0",
        "profile": "1",
        "spec": [],
        "bsw": [
          "Boarding Shotgun",
          "Pulzar",
          "CrazyKoalas"
        ],
        "ccw": [
          "Heavy Pistol",
          "DA CCW"
        ]
      },
      {
        "id": 3,
        "name": "Heavy Rocket Launcher",
        "cost": "47",
        "swc": "2",
        "profile": "1",
        "spec": [],
        "bsw": [
          "Heavy Rocket Launcher",
          "Light Shotgun",
          "CrazyKoalas"
        ],
        "ccw": [
          "Heavy Pistol",
          "DA CCW"
        ]
      },
      {
        "id": 4,
        "name": "Red Fury",
        "cost": "53",
        "swc": "1",
        "profile": "1",
        "spec": [
          "TinBot A (Deflector L1)"
        ],
        "bsw": [
          "Red Fury",
          "Pulzar",
          "CrazyKoalas"
        ],
        "ccw": [
          "Heavy Pistol",
          "DA CCW"
        ]
      },
      {
        "id": 5,
        "name": "Lieutenant",
        "cost": "53",
        "swc": "1",
        "profile": "1",
        "spec": [
          "TinBot A (Deflector L1)",
          "Lieutenant"
        ],
        "bsw": [
          "Red Fury",
          "Pulzar",
          "CrazyKoalas"
        ],
        "ccw": [
          "Heavy Pistol",
          "DA CCW"
        ]
      }
    ]
  },
  {
    "id": 5047,
    "army": "Nomads",
    "isc": "Kriza Boracs, Special Crisis Unit",
    "name": "Kriza Borac",
    "type": "HI",
    "classification": "Headquarters",
    "imp": "",
    "irr": "",
    "cube": "X",
    "hackable": "X",
    "mov": "4-4",
    "cc": "18",
    "bs": "13",
    "ph": "14",
    "wip": "13",
    "arm": "5",
    "bts": "6",
    "w": "2",
    "s": "5",
    "ava": "1",
    "spec": [
      "Fireteam: Duo",
      "Full Auto L2",
      "V: Courage",
      "Multiterrain"
    ],
    "childs": [
      {
        "id": 1,
        "name": "MULTI Rifle",
        "cost": "50",
        "swc": "0",
        "spec": [],
        "bsw": [
          "MULTI Rifle"
        ],
        "ccw": [
          "Heavy Pistol",
          "CCW"
        ]
      },
      {
        "id": 2,
        "name": "HMG",
        "cost": "54",
        "swc": "2",
        "spec": [],
        "bsw": [
          "HMG"
        ],
        "ccw": [
          "Heavy Pistol",
          "CCW"
        ]
      },
      {
        "id": 3,
        "name": "360° Mk12",
        "cost": "63",
        "swc": "0",
        "spec": [
          "360° Visor"
        ],
        "bsw": [
          "Mk12",
          "Submachine Gun"
        ],
        "ccw": [
          "Heavy Pistol",
          "CCW"
        ]
      },
      {
        "id": 4,
        "name": "MULTI Rifle Lieutenant",
        "cost": "50",
        "swc": "0",
        "spec": [
          "Lieutenant"
        ],
        "bsw": [
          "MULTI Rifle"
        ],
        "ccw": [
          "Heavy Pistol",
          "CCW"
        ]
      },
      {
        "id": 5,
        "name": "HMG Lieutenant",
        "cost": "54",
        "swc": "2",
        "spec": [
          "Lieutenant"
        ],
        "bsw": [
          "HMG"
        ],
        "ccw": [
          "Heavy Pistol",
          "CCW"
        ]
      },
      {
        "id": 6,
        "name": "360° Mk12 Lieutenant",
        "cost": "64",
        "swc": "0",
        "spec": [
          "Lieutenant",
          "360° Visor"
        ],
        "bsw": [
          "Mk12",
          "Submachine Gun"
        ],
        "ccw": [
          "Heavy Pistol",
          "CCW"
        ]
      }
    ]
  }
]
